<svg viewBox="0 0 20 25" fill="none" xmlns="http://www.w3.org/2000/svg">
<path d="M17.6191 11.8987C17.5492 11.8246 17.7806 12.0574 13.7504 8.02703C13.5409 7.81751 13.2258 7.75496 12.9522 7.86824C12.6785 7.98162 12.5 8.24871 12.5 8.5449V24.2676C12.5 24.6721 12.828 25 13.2325 25H17.1387C17.488 25 17.7887 24.7533 17.857 24.4108L19.2217 17.5676C19.6355 15.5072 19.0357 13.3871 17.6191 11.8987Z" fill="#F5DCCC"/>
<path d="M14.9787 14.1102L12.7145 11.8461C12.4285 11.56 12.4285 11.0963 12.7145 10.8103C13.0005 10.5243 13.4643 10.5243 13.7503 10.8103L16.0144 13.0745C16.3005 13.3605 16.3005 13.8242 16.0144 14.1102C15.7285 14.3962 15.2647 14.3963 14.9787 14.1102Z" fill="#F0CABB"/>
<path d="M13.9648 2.19727V22.8027C13.9648 24.0142 12.979 25 11.7676 25H2.19727C0.98584 25 0 24.0142 0 22.8027V2.19727C0 0.98584 0.98584 0 2.19727 0H11.7676C12.979 0 13.9648 0.98584 13.9648 2.19727Z" fill="#BCEAF9"/>
<path d="M13.9648 2.19727V22.8027C13.9648 24.0142 12.979 25 11.7676 25H6.98242V0H11.7676C12.979 0 13.9648 0.98584 13.9648 2.19727Z" fill="#78B7EA"/>
<path d="M11.7676 0H2.19727C0.98584 0 0 0.98584 0 2.19727V22.8027C0 24.0142 0.98584 25 2.19727 25H11.7676C12.979 25 13.9648 24.0142 13.9648 22.8027V2.19727C13.9648 0.98584 12.979 0 11.7676 0ZM12.5 20.3613H1.46484V2.19727C1.46484 1.79346 1.79346 1.46484 2.19727 1.46484H11.7676C12.1714 1.46484 12.5 1.79346 12.5 2.19727V20.3613Z" fill="#425796"/>
<path d="M13.9648 2.19727V22.8027C13.9648 24.0142 12.979 25 11.7676 25H6.98242V20.3613H12.5V2.19727C12.5 1.79346 12.1714 1.46484 11.7676 1.46484H6.98242V0H11.7676C12.979 0 13.9648 0.98584 13.9648 2.19727Z" fill="#283758"/>
<path d="M12.5212 11.6169C12.1034 11.193 11.5268 10.9348 10.8886 10.9348C9.6215 10.9348 8.59372 11.9597 8.59372 13.2295C8.59372 13.8398 8.83014 14.4136 9.25969 14.8462L12.0654 17.7751C11.7473 18.0175 11.3783 18.3549 11.0177 18.8118C9.9277 20.1932 9.37502 22.0288 9.37502 24.2676V25H14.7461V13.9268L12.5212 11.6169Z" fill="#F5DCCC"/>
</svg>
