<svg viewBox="0 0 148 22" fill="none" xmlns="http://www.w3.org/2000/svg">
<path d="M35.3033 20.7729C33.3479 20.7729 31.5811 20.3513 30.0024 19.5082C28.4418 18.6651 27.2129 17.5081 26.316 16.0371C25.437 14.5482 24.9976 12.8799 24.9976 11.0322C24.9976 9.18455 25.437 7.52525 26.316 6.05427C27.2129 4.56537 28.4418 3.39934 30.0024 2.55624C31.5811 1.71312 33.3479 1.29156 35.3033 1.29156C37.2587 1.29156 39.0166 1.71312 40.5773 2.55624C42.1379 3.39934 43.3668 4.56537 44.2636 6.05427C45.1605 7.52525 45.609 9.18455 45.609 11.0322C45.609 12.8799 45.1605 14.5482 44.2636 16.0371C43.3668 17.5081 42.1379 18.6651 40.5773 19.5082C39.0166 20.3513 37.2587 20.7729 35.3033 20.7729ZM35.3033 17.0596C36.4154 17.0596 37.4201 16.8085 38.317 16.3062C39.2138 15.786 39.9134 15.0684 40.4158 14.1536C40.9359 13.2387 41.1961 12.1982 41.1961 11.0322C41.1961 9.86624 40.9359 8.82579 40.4158 7.91092C39.9134 6.99605 39.2138 6.28748 38.317 5.78519C37.4201 5.26498 36.4154 5.00486 35.3033 5.00486C34.1912 5.00486 33.1865 5.26498 32.2896 5.78519C31.3928 6.28748 30.684 6.99605 30.1639 7.91092C29.6615 8.82579 29.4105 9.86624 29.4105 11.0322C29.4105 12.1982 29.6615 13.2387 30.1639 14.1536C30.684 15.0684 31.3928 15.786 32.2896 16.3062C33.1865 16.8085 34.1912 17.0596 35.3033 17.0596ZM58.5989 20.7729C55.9081 20.7729 53.8092 20.0285 52.3024 18.5396C50.8136 17.0507 50.069 14.9249 50.069 12.1624V1.61446H54.4281V12.0009C54.4281 15.3734 55.8273 17.0596 58.6258 17.0596C59.9892 17.0596 61.0294 16.656 61.7471 15.8488C62.4647 15.0236 62.8234 13.741 62.8234 12.0009V1.61446H67.1287V12.1624C67.1287 14.9249 66.3752 17.0507 64.8684 18.5396C63.3796 20.0285 61.2896 20.7729 58.5989 20.7729ZM90.0567 1.61446V20.45H86.4779L77.087 9.01414V20.45H72.7818V1.61446H76.3874L85.7514 13.0503V1.61446H90.0567ZM102.047 20.7729C100.558 20.7729 99.1141 20.5756 97.7149 20.1809C96.3337 19.7684 95.2216 19.2392 94.3783 18.5934L95.8583 15.3106C96.6655 15.9026 97.6253 16.378 98.7374 16.7367C99.8498 17.0955 100.962 17.2749 102.074 17.2749C103.312 17.2749 104.227 17.0955 104.819 16.7367C105.411 16.36 105.707 15.8667 105.707 15.2568C105.707 14.8083 105.527 14.4406 105.168 14.1536C104.828 13.8486 104.379 13.6064 103.823 13.427C103.285 13.2477 102.549 13.0503 101.617 12.8351C100.182 12.4942 99.0065 12.1534 98.0916 11.8126C97.1768 11.4717 96.3876 10.9246 95.7237 10.1712C95.0779 9.41776 94.7551 8.41321 94.7551 7.1575C94.7551 6.06323 95.051 5.07662 95.643 4.19762C96.235 3.3007 97.123 2.59211 98.3069 2.0719C99.5089 1.55167 100.971 1.29156 102.693 1.29156C103.895 1.29156 105.07 1.43507 106.218 1.72209C107.366 2.00911 108.37 2.4217 109.232 2.95986L107.886 6.26953C106.146 5.2829 104.406 4.7896 102.666 4.7896C101.446 4.7896 100.54 4.98691 99.9483 5.38157C99.3743 5.77623 99.0872 6.29644 99.0872 6.94223C99.0872 7.58802 99.4193 8.07237 100.083 8.39526C100.765 8.70021 101.796 9.00518 103.177 9.31013C104.613 9.65097 105.787 9.99179 106.702 10.3326C107.617 10.6735 108.397 11.2116 109.043 11.9471C109.707 12.6826 110.039 13.6782 110.039 14.9339C110.039 16.0102 109.734 16.9968 109.124 17.8938C108.532 18.7728 107.635 19.4724 106.433 19.9926C105.231 20.5128 103.769 20.7729 102.047 20.7729ZM128.947 16.952V20.45H114.363V1.61446H128.597V5.11249H118.695V9.2025H127.44V12.5929H118.695V16.952H128.947ZM133.761 1.61446H138.12V16.8982H147.565V20.45H133.761V1.61446Z" fill="#334480"/>
<path d="M16.2945 5.91431C14.3217 3.56059 10.644 2.79867 7.79617 4.16788C5.16331 5.4315 3.72618 7.55513 3.51872 10.4784C3.49609 10.799 3.40181 10.8707 3.10004 10.8632C2.21363 10.8443 1.32344 10.8367 0.437025 10.8632C0.0711435 10.8745 -0.019384 10.7689 0.00324788 10.4181C0.28992 6.35942 2.16082 3.26638 5.7329 1.31249C11.4965 -1.84088 18.7839 0.927754 21.0396 7.05346C21.1754 7.42312 21.198 7.55513 20.719 7.55136C18.3426 7.52873 15.9625 7.54004 13.5862 7.5438C13.3447 7.5438 13.1373 7.50231 12.9185 7.36653C10.2857 5.74834 6.9437 7.43442 6.66456 10.5199C6.64193 10.7915 6.55894 10.8669 6.29869 10.8556C5.87244 10.8367 5.44245 10.8367 5.0162 10.8556C4.73709 10.8707 4.67297 10.7689 4.68806 10.501C4.82761 7.6947 7.07948 5.23537 9.85188 4.86194C11.3381 4.66202 12.7261 4.9336 13.986 5.74458C14.3028 5.94827 14.6159 5.90301 14.9441 5.91054C15.3665 5.92185 15.7928 5.91431 16.2945 5.91431Z" fill="#334480"/>
<path d="M0.606689 14.1712C1.79109 14.1712 2.93022 14.1712 4.0656 14.1712C5.46124 14.1712 6.8531 14.175 8.24874 14.1712C8.45997 14.1712 8.641 14.2052 8.8334 14.3183C11.602 15.9403 14.7818 14.3485 15.1364 11.1574C15.159 10.9386 15.2118 10.8481 15.4419 10.8556C15.9021 10.8707 16.3623 10.8745 16.8187 10.8556C17.1016 10.8443 17.1129 10.9801 17.1054 11.2027C16.9733 14.0581 14.6649 16.5211 11.8133 16.8569C10.444 17.0191 9.16154 16.7701 7.98092 16.0685C7.63766 15.8648 7.30952 15.7668 6.91723 15.7894C6.47591 15.8158 6.0308 15.7969 5.58571 15.7969C5.52913 15.9705 5.68379 16.0232 5.75922 16.0949C8.04128 18.1959 10.6779 18.8221 13.5748 17.7056C16.4679 16.5891 18.0257 14.3674 18.2784 11.2668C18.3048 10.9462 18.3765 10.8406 18.7084 10.8481C19.5948 10.8707 20.485 10.8783 21.3714 10.8443C21.7524 10.8292 21.8166 10.965 21.7902 11.3045C21.462 15.6423 19.3874 18.8334 15.4608 20.6967C9.75375 23.4012 2.91515 20.5308 0.746253 14.605C0.697219 14.473 0.659499 14.341 0.606689 14.1712Z" fill="#334480"/>
</svg>
