<svg viewBox="0 0 118 49" fill="none" xmlns="http://www.w3.org/2000/svg">
<path d="M82.0005 3.09082C82.0005 4.43765 81.9877 5.67662 82.0091 6.91557C82.0153 7.22093 81.8241 7.28897 81.6334 7.39853L70.8179 13.5917C69.98 14.0713 69.1503 14.5675 68.3011 15.0273C67.7843 15.3069 67.5778 15.7301 67.5742 16.2878C67.543 21.5009 67.5246 26.714 67.4632 31.9262C67.4556 32.5577 67.6447 32.8796 68.1851 33.1967C72.5883 35.78 76.9664 38.4056 81.363 40.9972C81.7781 41.2462 81.9371 41.5109 81.9192 41.993C81.8793 43.051 81.9064 44.1124 81.9064 45.2452L78.7189 43.4195C73.942 40.6843 69.1631 37.9495 64.3826 35.2148C64.0973 35.0489 63.9828 34.8871 63.9818 34.551C63.9614 27.7241 63.9317 20.8973 63.8923 14.0705C63.8923 13.7933 63.8923 13.5725 64.196 13.3949C70.0224 10.0275 75.8443 6.6528 81.661 3.27089C81.7147 3.23189 81.773 3.20617 82.0005 3.09082Z" fill="#555555"/>
<path d="M83.9441 3.02686C85.0933 3.76127 86.1715 4.45833 87.2594 5.13878C87.4818 5.27737 87.4255 5.47072 87.4255 5.64832C87.4286 8.42443 87.4286 11.1997 87.4255 13.9741V38.4678C87.4255 38.5964 87.4214 38.7258 87.4255 38.8545C87.4419 39.2188 87.6065 39.3134 87.9281 39.1283C88.4858 38.808 89.0471 38.4918 89.6069 38.174C92.4192 36.5757 95.236 34.9841 98.0401 33.37C98.3668 33.1825 98.5917 33.2041 98.8995 33.3908C99.8125 33.9567 100.749 34.4886 101.756 35.0803L83.7432 45.5015C83.8106 31.3054 83.8771 17.2155 83.9441 3.02686Z" fill="#555555"/>
<path d="M61.6742 14.5875C61.6742 14.2165 61.7048 13.8406 61.6685 13.4754C61.574 12.5253 62.0433 11.9187 62.8178 11.4772L77.789 2.92982C79.4244 1.99625 81.0634 1.06849 82.6922 0.124129C82.9539 -0.0269029 83.1446 -0.0509683 83.4253 0.112511C90.1822 4.05094 96.9457 7.97885 103.715 11.8963C103.986 12.0531 104.106 12.2041 104.086 12.5303C104.032 13.3676 104.009 14.2065 103.998 15.0455C103.998 15.3526 103.852 15.3775 103.643 15.2696C103.335 15.1119 103.123 14.9128 103.092 14.5012C102.92 12.2448 103.295 12.7892 101.318 11.6722C95.4048 8.33788 89.4884 5.00609 83.5689 1.67676C83.1216 1.42781 82.7316 1.42781 82.3016 1.67676C76.013 5.26721 69.7229 8.85601 63.4307 12.4431C63.0898 12.6373 62.9328 12.9162 62.9149 13.3054C62.8674 14.2555 62.7764 15.2049 62.7529 16.155C62.7396 16.7019 62.3669 16.4288 62.143 16.4803C61.8802 16.5409 61.7278 16.467 61.7498 16.1384C61.7795 15.6239 61.758 15.1069 61.758 14.5908L61.6742 14.5875Z" fill="#555555"/>
<path d="M64.9954 38.3832C65.6594 38.345 66.2054 38.3267 66.7478 38.2777C66.9968 38.2553 67.1793 38.3823 67.371 38.4927C72.3626 41.3695 77.3517 44.2518 82.3392 47.1396C82.8105 47.4135 83.1408 47.4334 83.6377 47.1396C88.4964 44.29 93.3786 41.4743 98.2506 38.6528C98.4566 38.5299 98.6913 38.4632 98.931 38.4595C99.4596 38.4471 99.9872 38.4072 100.549 38.3765C100.476 38.5566 100.328 38.5939 100.217 38.6612C94.8422 41.8743 89.4662 45.088 84.0891 48.3023C83.3376 48.7529 82.6352 48.7727 81.8684 48.3197C76.3942 45.0883 70.9138 41.866 65.4268 38.6528C65.3185 38.5865 65.2121 38.5176 64.9954 38.3832Z" fill="#555555"/>
<path d="M4.84385 29.2932C3.93218 29.2932 3.1057 29.0973 2.36442 28.7053C1.63166 28.3049 1.05228 27.7553 0.626251 27.0566C0.208754 26.3494 0 25.5527 0 24.6666C0 23.7805 0.208754 22.9881 0.626251 22.2894C1.05228 21.5823 1.63166 21.0327 2.36442 20.6407C3.1057 20.2403 3.93643 20.04 4.85663 20.04C5.63201 20.04 6.3307 20.1764 6.95266 20.449C7.5832 20.7217 8.11145 21.1136 8.53746 21.6248L7.20827 22.8518C6.60334 22.1531 5.85352 21.8038 4.95888 21.8038C4.40507 21.8038 3.91087 21.9273 3.47633 22.1744C3.04179 22.413 2.70098 22.7495 2.45388 23.1841C2.21531 23.6186 2.09602 24.1128 2.09602 24.6666C2.09602 25.2204 2.21531 25.7146 2.45388 26.1492C2.70098 26.5837 3.04179 26.9246 3.47633 27.1716C3.91087 27.4102 4.40507 27.5295 4.95888 27.5295C5.85352 27.5295 6.60334 27.1759 7.20827 26.4687L8.53746 27.6956C8.11145 28.2154 7.5832 28.6116 6.95266 28.8842C6.32216 29.1569 5.61923 29.2932 4.84385 29.2932ZM16.9139 29.1399L15.1885 26.6476H15.0863H13.2842V29.1399H11.2137V20.1934H15.0863C15.8787 20.1934 16.5646 20.3255 17.1439 20.5896C17.7318 20.8538 18.1834 21.2286 18.4987 21.7143C18.814 22.2 18.9716 22.7751 18.9716 23.4397C18.9716 24.1043 18.8097 24.6794 18.4859 25.1651C18.1706 25.6422 17.7191 26.0086 17.1312 26.2642L19.1377 29.1399H16.9139ZM16.8755 23.4397C16.8755 22.937 16.7136 22.5536 16.3899 22.2894C16.0661 22.0168 15.5932 21.8805 14.9712 21.8805H13.2842V24.9989H14.9712C15.5932 24.9989 16.0661 24.8626 16.3899 24.5899C16.7136 24.3173 16.8755 23.9339 16.8755 23.4397ZM26.0595 25.9703V29.1399H23.989V25.9447L20.5255 20.1934H22.7238L25.1137 24.1682L27.5037 20.1934H29.5358L26.0595 25.9703ZM35.4654 20.1934C36.2578 20.1934 36.9437 20.3255 37.5231 20.5896C38.111 20.8538 38.5626 21.2286 38.8778 21.7143C39.193 22.2 39.3507 22.7751 39.3507 23.4397C39.3507 24.0957 39.193 24.6709 38.8778 25.1651C38.5626 25.6507 38.111 26.0256 37.5231 26.2898C36.9437 26.5454 36.2578 26.6732 35.4654 26.6732H33.6633V29.1399H31.5929V20.1934H35.4654ZM35.3504 24.9861C35.9723 24.9861 36.4452 24.8541 36.769 24.5899C37.0928 24.3173 37.2547 23.9339 37.2547 23.4397C37.2547 22.937 37.0928 22.5536 36.769 22.2894C36.4452 22.0168 35.9723 21.8805 35.3504 21.8805H33.6633V24.9861H35.3504ZM43.7105 21.8805H40.8476V20.1934H48.6438V21.8805H45.781V29.1399H43.7105V21.8805ZM55.2436 29.2932C54.3152 29.2932 53.4758 29.093 52.7258 28.6925C51.9845 28.2921 51.4012 27.7425 50.9749 27.0438C50.5577 26.3367 50.3486 25.5443 50.3486 24.6666C50.3486 23.789 50.5577 23.0009 50.9749 22.3022C51.4012 21.595 51.9845 21.0412 52.7258 20.6407C53.4758 20.2403 54.3152 20.04 55.2436 20.04C56.1725 20.04 57.0073 20.2403 57.7486 20.6407C58.4899 21.0412 59.0737 21.595 59.4995 22.3022C59.9259 23.0009 60.1386 23.789 60.1386 24.6666C60.1386 25.5443 59.9259 26.3367 59.4995 27.0438C59.0737 27.7425 58.4899 28.2921 57.7486 28.6925C57.0073 29.093 56.1725 29.2932 55.2436 29.2932ZM55.2436 27.5295C55.7722 27.5295 56.2492 27.4102 56.675 27.1716C57.1014 26.9246 57.4337 26.5837 57.6719 26.1492C57.9193 25.7146 58.0425 25.2204 58.0425 24.6666C58.0425 24.1128 57.9193 23.6186 57.6719 23.1841C57.4337 22.7495 57.1014 22.413 56.675 22.1744C56.2492 21.9273 55.7722 21.8038 55.2436 21.8038C54.7155 21.8038 54.2385 21.9273 53.8122 22.1744C53.3863 22.413 53.0499 22.7495 52.8025 23.1841C52.5643 23.6186 52.4446 24.1128 52.4446 24.6666C52.4446 25.2204 52.5643 25.7146 52.8025 26.1492C53.0499 26.5837 53.3863 26.9246 53.8122 27.1716C54.2385 27.4102 54.7155 27.5295 55.2436 27.5295Z" fill="#555555"/>
<path d="M99.7938 27.2227H95.6401L94.8477 29.1398H92.7261L96.7136 20.1934H98.7585L102.759 29.1398H100.586L99.7938 27.2227ZM99.142 25.6507L97.7233 22.2255L96.3047 25.6507H99.142ZM118 20.1934L115.073 29.1398H112.849L110.881 23.0818L108.849 29.1398H106.638L103.699 20.1934H105.846L107.865 26.4814L109.974 20.1934H111.891L113.936 26.5326L116.019 20.1934H118Z" fill="#555555"/>
</svg>
