<svg viewBox="0 0 58 58" fill="none" xmlns="http://www.w3.org/2000/svg">
	<path fill-rule="evenodd" clip-rule="evenodd" d="M10.4425 43.691L7.61195 48.594L8.05447 49.056C13.5418 54.7857 21.0663 58 28.9999 58C39.7166 58 49.5341 52.1093 54.586 42.6595L54.8096 42.2415L36.1267 9.88161L28.9999 22.2254L21.8733 9.88161L6.54776 36.4265L6.40647 35.9678C5.71212 33.7118 5.36236 31.3602 5.36236 29.0001C5.36236 15.9449 15.9449 5.36253 28.9999 5.36253C42.0549 5.36253 52.6375 15.9449 52.6375 29.0001C52.6375 30.5649 52.4837 32.1294 52.1772 33.664L52.1143 33.9793L55.7723 40.3156L56.3856 38.5581C57.4573 35.4871 58 32.2522 58 29.0001C58 12.9844 45.0159 0 29.0001 0C12.9843 0 0 12.9843 0 29.0001C0 35.1695 1.94196 41.1341 5.58736 46.1128L6.36027 47.1683L21.8733 20.2989L25.9325 27.3293L29.1812 32.9563L31.7768 37.4523H26.223L27.9626 34.4394L24.9555 29.2308L17.2016 42.6608H40.7984L32.0071 27.434L36.1267 20.2987L48.6972 42.0718L48.6245 42.1802C44.2247 48.724 36.8872 52.6376 29.0001 52.6376C22.1854 52.6378 15.7199 49.7111 11.2271 44.5862L10.4425 43.691Z" fill="#182443" />
</svg>
