<svg viewBox="0 0 24 25" fill="none" xmlns="http://www.w3.org/2000/svg">
	<path d="M9.90527 22.8695V24.8621C10.4472 24.9462 10.9991 25 11.5646 25C12.1334 25 12.6854 24.9462 13.2274 24.8621V24.0846V22.8695V5.82612L9.90527 8.15188V22.8695Z" fill="#1F4271" />
	<path d="M0 13.8466C0 19.1442 3.69558 23.5661 8.6433 24.707V23.189V22.6877V11.8406L5.32131 14.1647V21.1058C2.83727 19.3016 1.21507 16.386 1.21507 13.0809C1.21507 7.59131 5.66457 3.14342 11.1541 3.14342C11.7196 3.14342 12.2716 3.20065 12.8134 3.29153V2.8321C12.2716 2.75301 11.7196 2.69578 11.1541 2.69578C4.99477 2.69578 0 7.68723 0 13.8466Z" fill="#6ED0F6" />
	<path d="M19.074 5.26223V6.13898C20.8309 7.92954 21.9181 10.3748 21.9181 13.0809C21.9181 16.386 20.299 19.3016 17.8152 21.1058V10.2267V3.40095V2.32391L14.4897 -0.000234604V22.6877V23.5728V24.707C19.4375 23.5661 23.1329 19.1442 23.1329 13.8466C23.1329 10.3883 21.5477 7.30689 19.074 5.26223Z" fill="#377AC7" />
</svg>
