<svg viewBox="0 0 19 19" fill="none" xmlns="http://www.w3.org/2000/svg">
<path d="M15.4622 0H3.53771C1.58702 0 0 1.58706 0 3.53779V15.4622C0 17.4129 1.58702 19 3.53771 19H15.4622C17.4129 19 19 17.4129 19 15.4622V3.53779C19 1.58706 17.4129 0 15.4622 0ZM14.866 10.0566H9.49996H4.13391C3.82653 10.0566 3.57727 9.80741 3.57727 9.5C3.57727 9.19259 3.82653 8.94336 4.13391 8.94336H9.49996H14.866C15.1735 8.94336 15.4227 9.19259 15.4227 9.5C15.4227 9.80741 15.1735 10.0566 14.866 10.0566Z" fill="#66B49D"/>
<rect x="8.86914" y="3.26562" width="1.26172" height="12.4688" rx="0.630859" fill="white"/>
</svg>
