<svg viewBox="0 0 28 28" fill="none" xmlns="http://www.w3.org/2000/svg">
<path d="M14.2436 8.61727L14.2071 8.635L11.7582 10.0363C11.1787 10.3645 10.4526 10.3285 9.90815 9.94527C9.78423 9.85816 9.71364 9.72121 9.71454 9.56971C9.7156 9.41822 9.78802 9.28234 9.91482 9.19553L12.7306 7.23762C12.8349 7.16642 12.9547 7.13021 13.0751 7.13021C13.1753 7.13021 13.276 7.15521 13.368 7.20566L15.0341 8.30823L14.2436 8.61727ZM10.7003 12.0833C10.5968 12.0833 10.4967 12.063 10.4025 12.0233L10.0433 11.868C9.3093 11.5503 9.1628 11.4869 8.0575 11.0085L8.04114 11.0012C7.65862 10.8495 7.41154 10.486 7.41154 10.0743C7.41154 9.52457 7.85875 9.07736 8.40837 9.07736C8.60425 9.07736 8.79361 9.13402 8.95647 9.24127L8.96011 9.24385L8.97586 9.25415L9.13432 9.35808C9.14872 9.36778 9.16311 9.37716 9.17735 9.38671C9.16644 9.44518 9.16038 9.50533 9.15977 9.56608C9.15765 9.8971 9.31793 10.2086 9.58865 10.399C9.97996 10.6746 10.442 10.8141 10.9059 10.8141C11.0254 10.8138 11.145 10.8045 11.2634 10.7861C11.3967 10.928 11.4717 11.1143 11.4717 11.3122C11.4717 11.7374 11.1256 12.0833 10.7003 12.0833ZM9.87982 14.2189C9.78272 14.2192 9.68819 14.2048 9.5988 14.1748L9.58244 14.1694L9.53397 14.1527H9.53169L9.40201 14.1091C9.37277 14.097 9.34308 14.0856 9.31294 14.0756L9.28961 14.068C8.79695 13.904 8.54259 13.8193 8.26445 13.7269C7.9863 13.6343 7.68392 13.5336 7.09507 13.3378L7.09098 13.3339L7.03795 13.3184L7.01599 13.3112L6.80905 13.2421L6.79193 13.2363C6.38062 13.1053 6.10157 12.7273 6.09793 12.2949C6.09566 12.0283 6.19731 11.777 6.38395 11.5873C6.57059 11.3973 6.81995 11.2916 7.08643 11.2895C7.23186 11.2872 7.37184 11.3175 7.50334 11.3764L10.1059 12.4999L10.1145 12.5084L10.1652 12.5254L10.2007 12.5407L10.2177 12.5481C10.5341 12.6846 10.7405 12.9958 10.7436 13.3406C10.7477 13.8209 10.3602 14.2148 9.87982 14.2189ZM9.41641 15.674C9.29703 15.8038 9.13463 15.8793 8.95874 15.8867C8.91678 15.8885 8.87572 15.8866 8.83664 15.8806L8.83164 15.8802L8.82058 15.8785L8.81528 15.8776L8.81225 15.8773L7.93555 15.7498C7.88995 15.7431 7.84754 15.737 7.80709 15.731L6.55317 15.5487L6.52393 15.5404L6.50712 15.5418L6.47439 15.5371L6.46773 15.5361L6.4544 15.5342C6.02825 15.4827 5.70572 15.1332 5.68738 14.7035C5.67739 14.4699 5.75904 14.2466 5.91705 14.0747C6.07521 13.9024 6.29078 13.8023 6.52393 13.7925C6.61998 13.7885 6.71391 13.7996 6.80465 13.8259L6.80798 13.829L6.86631 13.8462C6.8957 13.8559 6.92388 13.8653 6.95175 13.8744L9.19977 14.6264C9.42474 14.7273 9.57866 14.9502 9.58941 15.2C9.59699 15.3762 9.53533 15.5445 9.41641 15.674ZM8.70075 16.8857V16.8858C8.68711 17.1608 8.46139 17.3721 8.18537 17.3671C8.18537 17.3671 7.33412 17.3524 6.37532 17.3351H6.36774L6.35472 17.335L6.33835 17.3344H6.33654C6.17004 17.326 6.01719 17.2533 5.90538 17.13C5.79388 17.0066 5.73707 16.847 5.74541 16.6805C5.75374 16.5145 5.82646 16.3613 5.94977 16.2498C6.07324 16.138 6.23276 16.0818 6.40001 16.0899C6.41334 16.0903 6.42713 16.0915 6.44243 16.0935L6.47243 16.1017L6.49015 16.1003L7.08779 16.187C7.48895 16.2454 7.66059 16.2701 8.25278 16.3563L8.26217 16.3577C8.52138 16.3921 8.71408 16.624 8.70075 16.8857ZM14.0002 0C6.27048 0 0.00333406 6.26427 1.19051e-06 13.9939C-0.000907773 16.2218 0.518717 18.3283 1.44404 20.1987C1.48146 20.2746 1.51949 20.35 1.55827 20.425C1.63311 20.5697 1.81611 20.6188 1.95261 20.53L6.07294 17.8525C6.15005 17.8722 6.22973 17.8843 6.31124 17.8885H6.31533L6.34972 17.8896H6.35365L6.36759 17.8899C7.32534 17.9072 8.17537 17.9219 8.17537 17.9219H8.19567C8.76316 17.9219 9.22658 17.4827 9.25461 16.9134C9.26355 16.7392 9.22855 16.571 9.15932 16.4207C9.41444 16.3722 9.64607 16.2441 9.82498 16.0493C10.044 15.8105 10.1572 15.5004 10.1436 15.1765C10.1375 15.0317 10.1051 14.8918 10.0507 14.7623C10.7583 14.6735 11.3045 14.0659 11.2983 13.3359C11.2961 13.0635 11.216 12.8041 11.0759 12.5835C11.6247 12.4211 12.0263 11.9129 12.0263 11.3122C12.0263 11.0631 11.9576 10.8251 11.8311 10.6196C11.8994 10.5893 11.9668 10.5555 12.0326 10.5184L14.4648 9.12645L18.1987 7.66725C18.2167 7.66013 18.237 7.65317 18.2611 7.6459L18.2627 7.64529C18.5635 7.55773 18.887 7.64044 19.1082 7.86147C19.2696 8.02281 19.3586 8.23732 19.3586 8.46578C19.3586 8.69408 19.2696 8.90845 19.1076 9.07039C19.0657 9.11266 19.0195 9.15008 18.9701 9.1825L17.4792 10.0257C17.3457 10.1012 17.2989 10.2704 17.3744 10.4038C17.4251 10.494 17.5191 10.5447 17.6159 10.5447C17.6622 10.5447 17.7092 10.5331 17.7521 10.5087L19.1894 9.69561L19.1902 9.69727C19.2075 9.68758 19.2238 9.67713 19.2405 9.66682L19.35 9.60471L19.3503 9.60501L19.37 9.59365L19.3714 9.59274L19.3997 9.57775C19.7863 9.37808 20.2531 9.4508 20.5614 9.75893C20.9499 10.1472 20.9499 10.7794 20.5614 11.168C20.4958 11.2334 20.4218 11.2895 20.3435 11.3333C20.3284 11.3416 20.3137 11.349 20.2994 11.3563L20.2644 11.3731L18.3342 12.5104C18.2023 12.5881 18.1585 12.7581 18.2361 12.8902C18.288 12.978 18.3803 13.0268 18.4754 13.0268C18.5232 13.0268 18.5718 13.0144 18.6159 12.9883L20.4055 11.9341L20.4085 11.9391C20.7798 11.7221 21.2519 11.7833 21.5565 12.088C21.7357 12.2671 21.8341 12.5051 21.8341 12.7584C21.8341 13.0114 21.7357 13.2497 21.5568 13.4283C21.4955 13.4895 21.4273 13.5405 21.3546 13.5819L21.344 13.5872L19.5062 14.6608C19.3739 14.7382 19.3293 14.9079 19.4064 15.0403C19.4579 15.1288 19.5509 15.1779 19.6462 15.1779C19.6937 15.1779 19.7419 15.1656 19.7857 15.1398L21.0801 14.3839C21.3852 14.2057 21.7751 14.2371 22.0354 14.4758L22.0646 14.5039C22.2413 14.6805 22.3387 14.9155 22.3387 15.1653C22.3387 15.4153 22.2413 15.6502 22.0646 15.8269L22.056 15.8358L19.9433 18.1449C19.7666 18.3379 19.5556 18.4898 19.3165 18.5962L11.341 22.1425C11.3196 22.1522 11.2996 22.1645 11.2814 22.1788L6.91767 25.6453C6.76647 25.7653 6.78269 26.0004 6.94948 26.0977C7.00553 26.1303 7.06174 26.1625 7.11809 26.1943C9.15038 27.344 11.4985 28 14.0002 28C16.866 28 19.5303 27.1391 21.7492 25.6612C21.8074 25.6226 21.8651 25.5837 21.9227 25.5441C22.0749 25.4396 22.0824 25.2174 21.9378 25.1024L18.2574 22.1788C18.2347 22.1608 18.2093 22.1464 18.182 22.1364L15.4069 21.0978C15.3371 21.0716 15.3342 20.974 15.4022 20.9437L19.5416 19.1031C19.8512 18.9655 20.1238 18.7689 20.3524 18.5192L21.1216 17.6789C21.5508 17.2097 22.2567 17.1209 22.7889 17.4689L26.3877 19.8225C26.5293 19.9152 26.7202 19.8587 26.7893 19.704C26.8218 19.6313 26.8537 19.5582 26.885 19.4845C27.6028 17.8004 28 15.9467 28 14.0002C28 6.26821 21.7321 0 14.0002 0Z" fill="#26A69A"/>
</svg>
