<svg viewBox="0 0 23 23" fill="none" xmlns="http://www.w3.org/2000/svg">
<path d="M4.54326 22.93C3.80693 22.93 3.07147 22.7516 2.42104 22.409C2.32184 22.3567 2.25327 22.2603 2.23647 22.1494C2.21968 22.0385 2.25659 21.9262 2.33584 21.8468L3.92711 20.2555C4.27245 19.9102 4.27245 19.3482 3.92711 19.0031C3.58178 18.6577 3.01986 18.6577 2.67453 19.0031L1.08308 20.5945C1.00383 20.6738 0.891518 20.7107 0.78043 20.6939C0.669517 20.6771 0.573124 20.6085 0.520817 20.5092C0.0797881 19.6712 -0.0892059 18.6917 0.0449746 17.7514C0.184053 16.7773 0.626307 15.8938 1.3238 15.1962C2.4394 14.0806 4.05429 13.6294 5.58241 13.994L13.9938 5.58259C13.6296 4.05412 14.0806 2.4394 15.1962 1.3238C15.8938 0.626131 16.7773 0.184053 17.7514 0.0449742C18.6917 -0.0893811 19.671 0.0796128 20.5092 0.520816C20.6085 0.573124 20.6769 0.669517 20.6939 0.78043C20.7107 0.891343 20.6738 1.00383 20.5944 1.08308L19.0031 2.67453C18.6577 3.01986 18.6577 3.58178 19.0031 3.92711C19.3484 4.27245 19.9103 4.27245 20.2555 3.92711L21.8468 2.33584C21.926 2.25659 22.0383 2.21933 22.1494 2.23647C22.2603 2.25327 22.3567 2.32184 22.409 2.42104C22.8502 3.25883 23.0194 4.23833 22.885 5.17865C22.7461 6.15272 22.3039 7.036 21.6066 7.73367C20.989 8.35104 20.2133 8.77388 19.3633 8.95634C18.6109 9.11816 17.8324 9.08615 17.0976 8.86555L8.86537 17.0978C9.08615 17.8325 9.11799 18.611 8.95634 19.3635C8.7737 20.2133 8.35087 20.989 7.7335 21.6066C7.036 22.3041 6.15255 22.7461 5.17864 22.8852C4.96819 22.9151 4.75564 22.93 4.54326 22.93Z" fill="#455A60"/>
<path d="M18.3867 22.93C18.1744 22.93 17.962 22.9151 17.7513 22.8852C16.7774 22.7461 15.894 22.3041 15.1965 21.6066C14.5791 20.989 14.1563 20.2133 13.9737 19.3635C13.812 18.611 13.8438 17.8325 14.0646 17.0978L5.83221 8.86554C5.09762 9.08614 4.31913 9.11798 3.56671 8.95633C2.71666 8.77387 1.94115 8.35103 1.3236 7.73366C0.626109 7.036 0.183856 6.15271 0.0449519 5.17864C-0.0894035 4.23832 0.0797653 3.259 0.520969 2.42103C0.573276 2.32184 0.669669 2.25326 0.780583 2.23646C0.891496 2.21932 1.00398 2.25658 1.08323 2.33583L2.6745 3.9271C3.01984 4.27244 3.58175 4.27244 3.92691 3.9271C4.27225 3.58177 4.27225 3.01985 3.92691 2.67452L2.33564 1.08325C2.25622 1.00382 2.2193 0.891511 2.2361 0.780423C2.25307 0.66951 2.32147 0.573117 2.42084 0.520809C3.25898 0.0797804 4.23848 -0.0892135 5.1788 0.044967C6.1527 0.184046 7.03633 0.626299 7.73382 1.32379C8.84943 2.4394 9.3006 4.05411 8.9362 5.58258L17.3476 13.994C18.8757 13.6296 20.4906 14.0806 21.6062 15.1962C22.3039 15.8938 22.7459 16.7773 22.885 17.7514C23.0194 18.6917 22.8502 19.6712 22.4092 20.5091C22.3569 20.6085 22.2605 20.6771 22.1496 20.6939C22.0386 20.7107 21.9262 20.6738 21.8469 20.5945L20.2555 19.0031C19.9101 18.6577 19.3482 18.6577 19.0029 19.0031C18.6575 19.3484 18.6575 19.9103 19.0029 20.2557L20.5942 21.8468C20.6734 21.9262 20.7103 22.0385 20.6935 22.1494C20.6767 22.2603 20.6083 22.3567 20.509 22.409C19.8587 22.7516 19.1231 22.93 18.3867 22.93Z" fill="#BDC4D4"/>
</svg>
