<svg viewBox="0 0 20 25" fill="none" xmlns="http://www.w3.org/2000/svg">
<path fill-rule="evenodd" clip-rule="evenodd" d="M0 4.99973H15.0002C17.7617 4.99973 19.9999 2.76143 19.9999 6.67572e-06H5C2.23857 6.67572e-06 0 2.2383 0 4.99973Z" fill="#08152D"/>
<path d="M15.0002 15H0L5.00004 9.99994H19.9999C19.9999 12.7614 17.7617 15 15.0002 15Z" fill="url(#paint0_linear)"/>
<path fill-rule="evenodd" clip-rule="evenodd" d="M15.0002 20H6.50145C5.67223 20 5 19.3278 5 18.4986V9.99991L0 15V20C0 22.7615 2.23857 25 5 25H19.9999C19.9999 22.2386 17.7617 20 15.0002 20Z" fill="#08152D"/>
<defs>
<linearGradient id="paint0_linear" x1="3.73459" y1="12.5" x2="12.6166" y2="12.5" gradientUnits="userSpaceOnUse">
<stop stop-color="#CB3326"/>
<stop offset="0.00502513" stop-color="#CB3326"/>
<stop offset="1" stop-color="#F33D2D"/>
</linearGradient>
</defs>
</svg>
