<svg viewBox="0 0 25 25" fill="none" xmlns="http://www.w3.org/2000/svg">
<path d="M12.4998 5.1018C15.1269 5.1018 17.4318 6.47202 18.743 8.5361C19.4198 9.60088 20.6318 10.204 21.8929 10.204H25V0H0V25H25V14.7955H21.8929C20.6318 14.7955 19.4198 15.3987 18.743 16.463C17.4318 18.5275 15.1269 19.8978 12.4998 19.8978C9.21601 19.8978 6.43618 17.7567 5.46982 14.7955H13.0953V10.204H5.46982C6.43618 7.2429 9.21601 5.1018 12.4998 5.1018Z" fill="#3468A7"/>
</svg>
