<svg viewBox="0 0 35 22" fill="none" xmlns="http://www.w3.org/2000/svg">
<path d="M5.90611 8.00276C5.90611 8.00276 -0.174965 17.7802 0.00386843 17.7802C0.182702 17.7802 10.1391 13.1896 17.0548 18.3764C19.3799 18.5552 20.5723 18.2571 20.5723 18.2571C20.5723 18.2571 26.1765 13.0703 35 16.8859C31.3633 11.401 28.7997 7.4066 28.7997 7.4066C28.7997 7.4066 26.9515 7.04887 26.0572 7.70465C27.9054 11.1029 29.992 14.2031 29.992 14.2031C29.992 14.2031 23.5532 13.1299 18.5452 17.0648C16.8759 15.3358 9.72168 12.8915 5.07144 14.0242C8.05234 9.4336 8.41012 8.30082 8.41012 8.30082C8.41012 8.30082 7.45617 7.52582 5.90611 8.00276Z" fill="#203864"/>
<path d="M24.1493 5.61804L28.263 12.8319C28.263 12.8319 21.6454 13.3685 18.8433 16.1109C20.3934 12.5338 25.5206 11.5203 25.5206 11.5203L23.446 6.99689L22.5266 7.42847V6.28386L24.1493 5.61804Z" fill="#6ABA2F"/>
<path d="M17.174 15.4551C17.174 15.4551 12.1661 12.5338 6.38306 13.13C9.84096 7.22771 10.7949 5.1411 10.7949 5.1411L12.3886 5.76554V6.99089L11.3314 6.57193L8.70823 11.6395C8.70823 11.6395 14.6104 12.5338 17.174 15.4551Z" fill="#6ABA2F"/>
<path d="M14.6585 17.7359C14.6585 17.7359 10.988 15.6929 4.10067 16.8457C2.95005 18.5865 1.64917 20.8381 1.64917 20.8381L14.6585 17.7359Z" fill="#B8B9BA"/>
<path d="M22.0763 17.936C22.0763 17.936 26.617 14.8963 31.9834 16.5099C34.16 20.075 34.7604 21.0132 34.7604 21.0132L22.0763 17.936Z" fill="#B8B9BA"/>
<path d="M15.433 13.2409L12.8274 12.0846V4.71296H15.433V13.2409Z" fill="#4CB9E9"/>
<path d="M18.8048 14.7989L18.0184 15.1763L16.1992 13.4844V2.60562H18.8048V14.7989Z" fill="#E58F15"/>
<path d="M22.1769 11.8566L19.5713 13.7142V-4.76837e-06H22.1769V11.8566Z" fill="#237236"/>
<path d="M13.075 5.05257V11.8943L14.2417 12.4247V5.63599L13.075 5.05257Z" fill="#3A90BB"/>
<path d="M13.0912 4.94742L14.261 5.54515L15.2087 4.95596L13.0912 4.94742Z" fill="#286688"/>
<path d="M16.4097 2.87517V13.3577L17.5105 14.3334V3.60072L16.4097 2.87517Z" fill="#E2661B"/>
<path d="M16.4146 2.79254L17.6018 3.55161L18.6008 2.79254H16.4146Z" fill="#9C481D"/>
<path d="M19.7986 0.344745L20.8709 1.07704L20.8558 12.4991L19.7986 13.2204V0.344745Z" fill="#1D5A2C"/>
<path d="M19.8174 0.18928L20.9826 1.10081L21.9259 0.18928H19.8174Z" fill="#1B4220"/>
</svg>
