<svg viewBox="0 0 17 14" fill="none" xmlns="http://www.w3.org/2000/svg">
<path d="M16.8311 6.60262L10.3664 0.186331C10.2467 0.0672987 10.079 0 9.90328 0H7.12532C6.5729 0 6.28603 0.607521 6.66224 0.980641L10.1227 4.41288H0.992661C0.444712 4.41288 0 4.82309 0 5.32852V8.67194C0 9.17737 0.444712 9.58757 0.992661 9.58757H10.1222L6.66175 13.0194C6.28553 13.3925 6.57241 14 7.12482 14H9.90279C10.0785 14 10.2462 13.9327 10.3659 13.8137L16.8306 7.39693C17.0564 7.17305 17.0564 6.82649 16.8311 6.60262V6.60262Z" fill="#464B4E"/>
</svg>
