<svg viewBox="0 0 23 29" fill="none" xmlns="http://www.w3.org/2000/svg">
<path d="M1.62208 6.99237C1.62208 6.99237 0.888992 6.81773 0.959054 7.79518L0.0178267 28.3187C0.0178267 28.3187 -0.155108 29.1215 0.576275 28.982L22.2443 28.9779C22.2443 28.9779 23.2201 29.1973 22.945 28.252L22.0075 7.76032C22.0075 7.76032 22.3216 6.88779 21.1698 6.92265L1.62208 6.99237Z" fill="#6669B0"/>
<path d="M18.5397 7.01838L18.3955 7.07067C18.2762 7.06384 18.1562 7.05153 18.0376 7.05153C13.6842 7.05153 9.33077 7.05153 4.97733 7.05153C4.81089 7.05153 4.64445 7.07477 4.47801 7.08571C4.46828 7.05678 4.45202 7.03047 4.43051 7.00881C4.4223 3.95922 6.40011 1.24388 9.44663 0.295132C12.4084 -0.62764 15.8428 0.675178 17.4378 3.34165C17.9983 4.27911 18.3845 5.27297 18.4426 6.37825C18.4539 6.59391 18.5055 6.80546 18.5397 7.01838Z" fill="#55C9EA"/>
<path d="M4.47833 7.08742C4.64477 7.07512 4.81121 7.05325 4.97765 7.05325C9.33108 7.05142 13.6845 7.05142 18.0379 7.05325C18.1572 7.05325 18.2772 7.06589 18.3958 7.07239C18.5424 9.7286 16.6815 12.8565 13.34 13.771C9.50367 14.8216 5.69912 12.5885 4.69808 8.78635C4.55352 8.232 4.44996 7.66706 4.47833 7.08742Z" fill="#343C5B"/>
</svg>
