<svg viewBox="0 0 23 23" fill="none" xmlns="http://www.w3.org/2000/svg">
<path d="M15.6935 0.332959V22.1973C15.6935 22.3811 15.5444 22.5302 15.3605 22.5302C15.1766 22.5302 15.0275 22.3811 15.0275 22.1973V20.3105H7.70245V22.1973C7.70245 22.3811 7.55337 22.5302 7.36949 22.5302C7.18561 22.5302 7.03653 22.3811 7.03653 22.1973V0.332959C7.03653 0.149077 7.18561 0 7.36949 0C7.55337 0 7.70245 0.149077 7.70245 0.332959V19.6446H15.0275V0.332959C15.0275 0.149077 15.1766 0 15.3605 0C15.5444 0 15.6935 0.149077 15.6935 0.332959Z" fill="#898989"/>
<path d="M5.28293 21.3982H17.447C17.6922 21.3982 17.891 21.5969 17.891 21.8421V22.2861C17.891 22.5312 17.6922 22.73 17.447 22.73H5.28293C5.03774 22.73 4.83899 22.5312 4.83899 22.2861V21.8421C4.83899 21.5969 5.03774 21.3982 5.28293 21.3982Z" fill="#A0A0A0"/>
<path d="M21.8421 16.426H0.887891C0.397509 16.426 0 16.0285 0 15.5381V1.77578C0 1.2854 0.397509 0.887894 0.887891 0.887894H21.8421C22.3325 0.887894 22.73 1.2854 22.73 1.77578V15.5381C22.73 16.0285 22.3325 16.426 21.8421 16.426Z" fill="#EDEDED"/>
<path d="M22.73 6.50931V15.538C22.73 16.0284 22.3325 16.4259 21.8421 16.4259H0.887891C0.397509 16.4259 0 16.0284 0 15.538V10.8026H4.95811C5.19447 10.8026 5.42106 10.7084 5.58772 10.5408L7.47631 8.64158C7.77539 8.3408 8.24549 8.29357 8.59842 8.52886L9.89829 9.39544C10.3131 9.67202 10.8743 9.55286 11.141 9.1316L13.646 5.17459C13.9394 4.7112 14.5785 4.62192 14.9876 4.9872L16.4397 6.28374C16.6024 6.429 16.813 6.50931 17.0311 6.50931H22.73Z" fill="#D8D8D8"/>
<path d="M19.2006 2.21972C19.2006 2.03584 19.3497 1.88676 19.5336 1.88676H21.3094C21.4932 1.88676 21.6423 2.03584 21.6423 2.21972C21.6423 2.40361 21.4932 2.55268 21.3094 2.55268H19.5336C19.3497 2.55268 19.2006 2.40361 19.2006 2.21972ZM21.3982 14.7612H1.66479V13.2074H2.21972C2.4036 13.2074 2.55268 13.0583 2.55268 12.8744C2.55268 12.6905 2.4036 12.5415 2.21972 12.5415H1.66479V11.1356H3.10761C3.29149 11.1356 3.44057 10.9865 3.44057 10.8027C3.44057 10.6188 3.29149 10.4697 3.10761 10.4697H1.66479V9.00472H2.21972C2.4036 9.00472 2.55268 8.85564 2.55268 8.67176C2.55268 8.48788 2.4036 8.3388 2.21972 8.3388H1.66479V6.84412H3.10761C3.29149 6.84412 3.44057 6.69505 3.44057 6.51117C3.44057 6.32728 3.29149 6.17821 3.10761 6.17821H1.66479V4.6838H2.21972C2.4036 4.6838 2.55268 4.53472 2.55268 4.35084C2.55268 4.16696 2.4036 4.01788 2.21972 4.01788H1.66479V2.55268H3.10761C3.29149 2.55268 3.44057 2.40361 3.44057 2.21972C3.44057 2.03584 3.29149 1.88676 3.10761 1.88676H1.33183C1.14795 1.88676 0.998871 2.03584 0.998871 2.21972V15.0941C0.998871 15.278 1.14795 15.4271 1.33183 15.4271H21.3982C21.582 15.4271 21.7311 15.278 21.7311 15.0941C21.7311 14.9103 21.582 14.7612 21.3982 14.7612Z" fill="#A0A0A0"/>
<path d="M21.6441 6.50935C21.6441 6.69323 21.495 6.84231 21.3111 6.84231H17.0328C16.7325 6.84231 16.4437 6.73217 16.2197 6.53217L14.7676 5.23558C14.6457 5.12677 14.483 5.07727 14.3212 5.09996C14.1594 5.12255 14.0165 5.21467 13.929 5.35274L11.424 9.30976C11.2466 9.58993 10.9704 9.78211 10.646 9.85097C10.3217 9.91974 9.99116 9.85648 9.71524 9.6725L8.41542 8.80592C8.19544 8.65929 7.90049 8.68885 7.71412 8.87638L5.82553 10.7756C5.59801 11.0043 5.2825 11.1356 4.95984 11.1356H4.44117C4.25729 11.1356 4.10822 10.9865 4.10822 10.8026C4.10822 10.6187 4.25729 10.4697 4.44117 10.4697H4.95984C5.10647 10.4697 5.24991 10.41 5.3533 10.306L7.24189 8.40677C7.65201 7.99439 8.30088 7.92918 8.78482 8.25184L10.0847 9.11842C10.2101 9.20201 10.3603 9.23087 10.5077 9.19953C10.6552 9.16823 10.7807 9.08086 10.8613 8.95354L13.3664 4.99647C13.5587 4.69277 13.8731 4.49011 14.2291 4.44039C14.5851 4.39062 14.943 4.49948 15.2111 4.73881L16.6632 6.03539C16.765 6.12627 16.8962 6.17635 17.0328 6.17635H21.3111C21.495 6.17639 21.6441 6.32547 21.6441 6.50935Z" fill="#7FA740"/>
<path d="M19.5336 14.4282C19.5336 16.5122 17.8441 18.2017 15.76 18.2017C13.676 18.2017 11.9865 16.5122 11.9865 14.4282C11.9865 12.3441 13.676 10.6546 15.76 10.6546C17.8441 10.6546 19.5336 12.3441 19.5336 14.4282ZM14.4283 5.71836C14.9187 5.71836 15.3162 5.32085 15.3162 4.83046C15.3162 4.34008 14.9187 3.94257 14.4283 3.94257C13.938 3.94257 13.5405 4.34008 13.5405 4.83046C13.5405 5.3208 13.938 5.71836 14.4283 5.71836Z" fill="#EFAB21"/>
<path d="M17.3233 13.8245C17.5615 13.8245 17.7059 14.0875 17.578 14.2884L15.8491 17.0054C15.7937 17.0924 15.6976 17.1452 15.5944 17.1452H15.4582C15.2914 17.1452 15.1563 17.01 15.1563 16.8433V15.032H14.1968C13.9586 15.032 13.8142 14.769 13.9421 14.568L15.671 11.8511C15.7264 11.764 15.8225 11.7113 15.9257 11.7113H16.0619C16.2286 11.7113 16.3638 11.8464 16.3638 12.0132V13.8245H17.3233Z" fill="#FFDE33"/>
</svg>
