<svg viewBox="0 0 28 28" fill="none" xmlns="http://www.w3.org/2000/svg">
<path d="M21 4.2L19.25 8.58729L17.5 4.2V0H0V28H9.1V25.2H2.8V2.8H14.7V23.8H17.5V11.0923L19.25 15.4L21 11.0923V23.8H23.8V4.2H21Z" fill="#08152D"/>
<path d="M6.99998 23.8V11.0923L8.74998 15.4L10.5 11.0923V28H28V0H18.9V2.8H25.2V25.2H13.3V4.2H10.5L8.74998 8.58729L6.99998 4.2H4.19998V23.8H6.99998Z" fill="#08152D"/>
</svg>
