<svg viewBox="0 0 37 37" fill="none" xmlns="http://www.w3.org/2000/svg">
<path d="M0 0V12.2852H12.2852V0H0ZM9.39453 9.39453H2.89062V2.89062H9.39453V9.39453Z" fill="black"/>
<path d="M7.58789 4.69727H4.69727V7.58789H7.58789V4.69727Z" fill="black"/>
<path d="M24.7148 0V12.2852H37V0H24.7148ZM34.1094 9.39453H27.6055V2.89062H34.1094V9.39453Z" fill="black"/>
<path d="M32.3027 4.69727H29.4121V7.58789H32.3027V4.69727Z" fill="black"/>
<path d="M0 24.7148V37H12.2852V24.7148H0ZM9.39453 34.1094H2.89062V27.6055H9.39453V34.1094Z" fill="black"/>
<path d="M7.58789 29.4121H4.69727V32.3027H7.58789V29.4121Z" fill="black"/>
<path d="M5.78125 14.2363H2.89062V17.127H5.78125V14.2363Z" fill="black"/>
<path d="M8.67188 20.0176V17.127H5.78125V20.0176H8.59961V22.9082H11.4902V20.0176H8.67188Z" fill="black"/>
<path d="M23.125 5.56445H20.2344V8.45508H23.125V5.56445Z" fill="black"/>
<path d="M17.3438 2.89062H14.4531V8.45508H17.3438V2.89062Z" fill="black"/>
<path d="M20.2344 0H17.3438V2.89062H20.2344V0Z" fill="black"/>
<path d="M17.3438 8.45508V11.3457H14.4531V14.2363H20.2344V8.45508H17.3438Z" fill="black"/>
<path d="M20.2344 25.6543V22.8359H17.3438V17.127H14.4531V22.9082H17.3438V25.7266H20.2344V28.5449H26.0156V25.6543H20.2344Z" fill="black"/>
<path d="M23.125 14.2363H20.2344V20.0176H23.125V14.2363Z" fill="black"/>
<path d="M34.1094 17.0547V14.2363H28.834V17.127H26.0156V20.0176H28.9062V22.8359H37V17.0547H34.1094ZM34.1094 19.9453H28.9062V17.127H34.1094V19.9453Z" fill="black"/>
<path d="M37 25.6543H34.1094V31.4355H37V25.6543Z" fill="black"/>
<path d="M26.0156 20.0176H23.125V22.9082H26.0156V20.0176Z" fill="black"/>
<path d="M28.9062 28.5449H26.0156V31.4355H28.9062V28.5449Z" fill="black"/>
<path d="M31.7969 25.6543H28.9062V28.5449H31.7969V25.6543Z" fill="black"/>
<path d="M28.9062 31.4355V37H31.7969V34.3262H34.1094V31.4355H28.9062Z" fill="black"/>
<path d="M17.3438 25.7266H14.4531V31.2188H17.3438V25.7266Z" fill="black"/>
<path d="M23.125 34.1094V31.2188H17.3438V37H20.2344V34.1094H23.0527V37H25.9434V34.1094H23.125Z" fill="black"/>
<path d="M14.4531 14.2363H8.67188V17.127H14.4531V14.2363Z" fill="black"/>
<path d="M2.89062 17.127H0V22.9082H2.89062V17.127Z" fill="black"/>
</svg>
 
