<svg viewBox="0 0 23 23" fill="none" xmlns="http://www.w3.org/2000/svg">
<path fill-rule="evenodd" clip-rule="evenodd" d="M13.9314 17.7775C13.9314 17.7775 9.02299 15.0206 0.0433254 10.25C0.0491638 10.6334 0.053367 11.0489 0.053367 11.4998C0.053367 12.001 0.0482296 12.4566 0.0409901 12.8744C4.54565 15.3016 7.38894 16.8317 8.47465 17.4157V19.1098C7.34854 18.504 4.49404 16.9695 0.00642729 14.5617C-0.0561601 18.0678 0.260046 17.533 5.54775 20.3823C10.9711 23.3049 10.476 23.7803 13.9742 21.8082C13.9674 21.0936 13.9532 19.6308 13.9314 17.7775Z" fill="#6669B0"/>
<path fill-rule="evenodd" clip-rule="evenodd" d="M8.29443 5.07356C16.3628 9.4223 21.0391 11.9386 22.0376 12.4756C22.0339 12.1704 22.0317 11.8456 22.0317 11.4998C22.0317 11.0363 22.0359 10.6114 22.0421 10.2197C19.8725 9.03908 17.0455 7.51471 13.6104 5.68853V3.94149C16.9726 5.74753 19.8038 7.27134 22.0773 8.49702C22.144 4.92663 21.8538 5.48259 16.5369 2.61738C11.211 -0.252664 11.5931 -0.762676 8.29528 1.0879L8.29443 5.07356Z" fill="#6669B0"/>
<path fill-rule="evenodd" clip-rule="evenodd" d="M0.00689257 8.48237C10.1053 13.9048 15.5181 16.8424 15.5181 16.8424L15.5209 20.9385C15.8347 20.764 16.1727 20.5789 16.537 20.3823C22.0057 17.4353 22.1566 18.109 22.0712 14.188C20.9695 13.5953 15.675 10.7471 6.54105 5.85301L6.55694 2.06545C6.24483 2.23881 5.90974 2.42267 5.54798 2.6176C0.237397 5.47905 -0.0584797 4.92719 0.00689257 8.48237Z" fill="#6669B0"/>
</svg>
