<svg viewBox="0 0 21 21" fill="none" xmlns="http://www.w3.org/2000/svg">
<path d="M16.0371 13.5762H19.7285V20.3848H16.0371V13.5762Z" fill="#FD697F"/>
<path d="M17.8828 13.5762H19.7285V20.3848H17.8828V13.5762Z" fill="#E6455D"/>
<path d="M12.9609 13.5762H11.1152V20.3848H12.9609H14.8066V13.5762H12.9609Z" fill="#8ADB53"/>
<path d="M12.9609 13.5762H14.8066V20.3848H12.9609V13.5762Z" fill="#4FC16E"/>
<path d="M8.03906 15.3492L6.19336 16.2721V20.3848H8.03906H9.88477V14.4264L8.03906 15.3492Z" fill="#FD697F"/>
<path d="M9.88477 14.4264L8.03906 15.3492V20.3848H9.88477V14.4264Z" fill="#E6455D"/>
<path d="M2.50195 4.96289H3.73242V6.80859H2.50195V4.96289Z" fill="#60474F"/>
<path d="M2.50195 10.5H3.73242V12.3457H2.50195V10.5Z" fill="#60474F"/>
<path d="M3.11719 4.96289H3.73242V6.80859H3.11719V4.96289Z" fill="#3F303A"/>
<path d="M3.11719 10.5H3.73242V12.3457H3.11719V10.5Z" fill="#3F303A"/>
<path d="M1.27148 16.0371H4.96289V20.3848H1.27148V16.0371Z" fill="#8ADB53"/>
<path d="M3.11719 16.0371H4.96289V20.3848H3.11719V16.0371Z" fill="#4FC16E"/>
<path d="M17.8612 8.00783L17.3661 9.13375L18.3633 9.57204L15.2765 11.1153H10.5H10.2092L5.43272 13.5762H0.65625V14.8067H5.72353L10.5 12.3457H15.5673L18.9133 10.673L18.6657 11.7329L19.8637 12.0129L20.5264 9.17882L17.8612 8.00783Z" fill="#FD697F"/>
<path d="M18.9133 10.673L18.6657 11.7329L19.8637 12.0129L20.5264 9.17882L17.8612 8.00783L17.3661 9.13375L18.3633 9.57204L15.2765 11.1153H10.5V12.3457H15.5673L18.9133 10.673Z" fill="#E6455D"/>
<path d="M10.5 19.7695H0V21H10.5H21V19.7695H10.5Z" fill="#60474F"/>
<path d="M10.5 19.7695H21V21H10.5V19.7695Z" fill="#3F303A"/>
<path d="M1.27148 6.19336V11.1152H4.96289V6.19336H1.27148Z" fill="#8ADB53"/>
<path d="M3.11719 6.19336H4.96289V11.1152H3.11719V6.19336Z" fill="#4FC16E"/>
<path d="M7.42383 2.50195H8.6543V4.34766H7.42383V2.50195Z" fill="#60474F"/>
<path d="M7.42383 8.03906H8.6543V9.88477H7.42383V8.03906Z" fill="#60474F"/>
<path d="M8.03906 2.50195H8.6543V4.34766H8.03906V2.50195Z" fill="#3F303A"/>
<path d="M8.03906 8.03906H8.6543V9.88477H8.03906V8.03906Z" fill="#3F303A"/>
<path d="M6.19336 3.73242V8.6543H9.88477V3.73242H6.19336Z" fill="#FD697F"/>
<path d="M8.03906 3.73242H9.88477V8.6543H8.03906V3.73242Z" fill="#E6455D"/>
<path d="M17.2676 0H18.498V1.8457H17.2676V0Z" fill="#60474F"/>
<path d="M17.2676 5.57812H18.498V7.42383H17.2676V5.57812Z" fill="#60474F"/>
<path d="M17.8828 0H18.498V1.8457H17.8828V0Z" fill="#3F303A"/>
<path d="M17.8828 5.57812H18.498V7.42383H17.8828V5.57812Z" fill="#3F303A"/>
<path d="M16.0371 1.23047V6.19336H19.7285V1.23047H16.0371Z" fill="#FD697F"/>
<path d="M17.8828 1.23047H19.7285V6.19336H17.8828V1.23047Z" fill="#E6455D"/>
<path d="M12.3457 1.27148H13.5762V3.11719H12.3457V1.27148Z" fill="#60474F"/>
<path d="M12.3457 6.80859H13.5762V8.6543H12.3457V6.80859Z" fill="#60474F"/>
<path d="M12.9609 1.27148H13.5762V3.11719H12.9609V1.27148Z" fill="#3F303A"/>
<path d="M12.9609 6.80859H13.5762V8.6543H12.9609V6.80859Z" fill="#3F303A"/>
<path d="M11.1152 2.50195V7.42383H14.8066V2.50195H11.1152Z" fill="#8ADB53"/>
<path d="M12.9609 2.50195H14.8066V7.42383H12.9609V2.50195Z" fill="#4FC16E"/>
</svg>
