<svg viewBox="0 0 22 25" fill="none" xmlns="http://www.w3.org/2000/svg">
<path d="M11.2401 22.051C10.3333 20.546 9.4636 17.1365 9.4636 12.4998C9.4636 11.781 9.48543 11.0936 9.5241 10.436C9.1147 10.2294 8.71848 10.0404 8.3388 9.87081C8.27561 10.7349 8.24345 11.6182 8.24345 12.4998C8.24345 16.2313 8.81383 19.99 9.92017 22.1867L3.31083 18.3624C4.54376 18.3612 7.84096 16.4467 7.79982 16.0208C5.43568 16.9805 3.61744 17.2762 2.65148 17.0819C2.50413 16.8933 2.31151 16.7416 2.08907 16.6453V8.35473C2.31211 8.25756 2.50531 8.10552 2.65286 7.91607C4.13018 7.62112 7.59707 8.46972 11.952 11.0772C12.5336 11.4255 13.0805 11.7773 13.5962 12.1285C13.9646 11.8705 14.3119 11.615 14.6383 11.3634C13.9739 10.8986 13.2829 10.4499 12.5778 10.0277C9.00102 7.88623 5.54328 6.64 3.31098 6.63717L9.91942 2.81337C9.33885 3.9673 9.39287 7.66374 9.7859 7.84757C10.1198 5.58002 10.6723 3.89144 11.2393 2.94895C11.4739 2.91594 11.6904 2.82673 11.8748 2.69468L19.0469 6.84457C19.0441 6.88081 19.0413 6.91662 19.0413 6.95361V7.02884C19.0413 7.18846 19.0682 7.34173 19.116 7.48542C18.3644 9.01861 15.9167 11.5481 11.952 13.9224C11.3346 14.2921 10.7359 14.6253 10.1576 14.9258C10.1897 15.3836 10.23 15.8202 10.2775 16.2357C11.0311 15.8588 11.8018 15.4369 12.5778 14.972C15.7379 13.0797 18.6418 10.6629 19.9104 8.58635V16.4165C19.2262 15.296 15.9874 13.4109 15.6492 13.6605C17.4685 15.1547 18.6365 16.5391 19.1145 17.5182C19.0677 17.6607 19.0413 17.8128 19.0413 17.9712V18.0464C19.0413 18.083 19.0441 18.1192 19.0469 18.1554L11.8748 22.3053C11.6907 22.1732 11.4747 22.084 11.2401 22.051ZM22 7.02884V6.95361C22 6.15559 21.3543 5.50875 20.5581 5.50875H20.483C20.1704 5.50875 19.8817 5.60948 19.6456 5.77903L12.4735 1.6292C12.4763 1.59292 12.479 1.55663 12.479 1.52009V1.44499C12.479 0.646894 11.8335 1.90735e-06 11.0374 1.90735e-06H10.9622C10.1661 1.90735e-06 9.52058 0.646894 9.52058 1.44499V1.52009C9.52058 1.55663 9.52337 1.59292 9.52614 1.6292L2.35403 5.77903C2.11774 5.60948 1.82934 5.50875 1.51675 5.50875H1.44171C0.645394 5.50875 0 6.15559 0 6.95361V7.02884C0 7.62274 0.357851 8.13221 0.869016 8.35473V16.6453C0.357851 16.8674 0 17.3773 0 17.9712V18.0464C0 18.844 0.645394 19.4912 1.44171 19.4912H1.51675C1.82934 19.4912 2.11774 19.3905 2.35403 19.221L9.52614 23.3708C9.52337 23.4067 9.52058 23.4429 9.52058 23.4799V23.5551C9.52058 24.3528 10.1661 25 10.9622 25H11.0374C11.8335 25 12.479 24.3528 12.479 23.5551V23.4799C12.479 23.4429 12.4763 23.4067 12.4735 23.3708L19.6456 19.221C19.8817 19.3905 20.1704 19.4912 20.483 19.4912H20.5581C21.3543 19.4912 22 18.844 22 18.0464V17.9712C22 17.3773 21.6419 16.8674 21.1305 16.6453V8.35473C21.6419 8.13259 22 7.62274 22 7.02884Z" fill="#100F0D"/>
</svg>
