<svg viewBox="0 0 14 14" fill="none" xmlns="http://www.w3.org/2000/svg">
<path
    d="M10.5 12.25H7C6.53587 12.25 6.09075 12.0656 5.76256 11.7374C5.43437 11.4092 5.25 10.9641 5.25 10.5V7C5.25 6.53587 5.43437 6.09075 5.76256 5.76256C6.09075 5.43437 6.53587 5.25 7 5.25H10.5C10.9641 5.25 11.4092 5.43437 11.7374 5.76256C12.0656 6.09075 12.25 6.53587 12.25 7V10.5C12.25 10.9641 12.0656 11.4092 11.7374 11.7374C11.4092 12.0656 10.9641 12.25 10.5 12.25ZM7 6.41667C6.84529 6.41667 6.69692 6.47812 6.58752 6.58752C6.47812 6.69692 6.41667 6.84529 6.41667 7V10.5C6.41667 10.6547 6.47812 10.8031 6.58752 10.9125C6.69692 11.0219 6.84529 11.0833 7 11.0833H10.5C10.6547 11.0833 10.8031 11.0219 10.9125 10.9125C11.0219 10.8031 11.0833 10.6547 11.0833 10.5V7C11.0833 6.84529 11.0219 6.69692 10.9125 6.58752C10.8031 6.47812 10.6547 6.41667 10.5 6.41667H7Z"
    fill="#050505"
  />
<path
    d="M5.67583 8.75H3.3075C2.8949 8.74846 2.49963 8.58388 2.20788 8.29212C1.91612 8.00037 1.75154 7.6051 1.75 7.1925V3.3075C1.75154 2.8949 1.91612 2.49963 2.20788 2.20788C2.49963 1.91612 2.8949 1.75154 3.3075 1.75H7.1925C7.6051 1.75154 8.00037 1.91612 8.29212 2.20788C8.58388 2.49963 8.74846 2.8949 8.75 3.3075V5.48333H7.58333V3.3075C7.58333 3.20384 7.54216 3.10443 7.46886 3.03114C7.39557 2.95784 7.29615 2.91667 7.1925 2.91667H3.3075C3.20384 2.91667 3.10443 2.95784 3.03114 3.03114C2.95784 3.10443 2.91667 3.20384 2.91667 3.3075V7.1925C2.91667 7.29615 2.95784 7.39557 3.03114 7.46886C3.10443 7.54216 3.20384 7.58333 3.3075 7.58333H5.67583V8.75Z"
    fill="#050505"
  />
</svg>
