<svg viewBox="0 0 31 31" fill="none" xmlns="http://www.w3.org/2000/svg">
<path d="M31 12.4437V14.7872L15.5 26.336L15.4933 26.3408L0 14.7872V12.4437L4.28975 9.15375H26.7103L31 12.4437Z" fill="#186A81"/>
<path d="M31 12.4437V14.7872L15.5 26.336V9.15375H26.7103L31 12.4437Z" fill="#00465F"/>
<path d="M27.0645 0V18.0926L15.5073 25.7163L15.5 25.7115L3.93555 18.0902V0L27.0645 0Z" fill="#EAF4F4"/>
<path d="M27.0645 0V18.0926L15.5073 25.7163L15.5 25.7115V0L27.0645 0Z" fill="#CAE8EA"/>
<path d="M31 16.5983V31H0V14.7873L15.4933 24.5299L15.5073 24.5389L31 16.5983Z" fill="#FFE26F"/>
<path d="M31 14.7873V31H15.4933V24.5299L15.5073 24.5389L31 14.7873Z" fill="#FFC271"/>
<path d="M15.5 19.4804C19.7327 19.4804 23.164 16.0491 23.164 11.8163C23.164 7.58361 19.7327 4.15231 15.5 4.15231C11.2673 4.15231 7.83597 7.58361 7.83597 11.8163C7.83597 16.0491 11.2673 19.4804 15.5 19.4804Z" fill="#00DC7B"/>
<path d="M23.164 11.8163C23.164 16.0425 19.7262 19.4804 15.5 19.4804V4.15231C19.7262 4.15231 23.164 7.59016 23.164 11.8163Z" fill="#00AA8E"/>
<path d="M18.933 10.4686L14.7111 14.6905L12.067 12.0464L13.3512 10.7622L14.7111 12.1221L15.5 11.3332L17.6488 9.18439L18.933 10.4686Z" fill="white"/>
<path d="M18.933 10.4686L15.5 13.9016V11.3332L17.6488 9.18439L18.933 10.4686Z" fill="#EAF4F4"/>
</svg>
