<svg
  viewBox="0 0 21 18"
  fill="none"
  xmlns="http://www.w3.org/2000/svg"
>
<path
    d="M0.689034 1.39068L4.2416 0.0403053C4.33293 0.00543302 4.4308 -0.00706216 4.52762 0.00380209C4.62442 0.0146663 4.71748 0.0485939 4.79936 0.102917C4.88134 0.157241 4.95002 0.230479 5.00003 0.316874C5.04992 0.403269 5.07978 0.500465 5.08729 0.600821L6.01063 12.8378L8.50925 11.8169L7.52022 0.827677L20.186 6.17038L21 10.6752L16.8173 12.9578L16.2365 8.51262L13.4467 7.31128L14.3147 13.3296C14.3494 13.5696 14.309 13.8148 14.1991 14.0294C14.0893 14.244 13.9168 14.4168 13.7049 14.5226L6.76509 18L1.21596 15.5907C1.01608 15.5038 0.844223 15.3601 0.720245 15.1761C0.596368 14.9922 0.525559 14.7756 0.516022 14.5516L0.00114068 2.46369C-0.00926302 2.23248 0.0517108 2.00385 0.175399 1.81092C0.299088 1.61799 0.479035 1.4708 0.689034 1.39068Z"
    fill="#464b4e"
  />
</svg>
