 <svg viewBox="0 0 302 79" fill="none" xmlns="http://www.w3.org/2000/svg">
<path d="M77.5159 0H0V78.0077H77.5159V0Z" fill="#182443"/>
<path d="M69.9776 8.35809H49.1646V25.8934V33.1042H69.9776V8.35809Z" fill="white"/>
<path d="M69.9774 39.004V35.9311H49.1644V36.3818L25.0738 8.35809H7.49756V17.7813L20.6081 33.1452H7.49756V35.9722H23.0253L25.6474 39.0449H7.49756V41.8719H28.0647L30.6868 44.9447H7.49756V47.7716H33.1041L35.7262 50.8444H7.49756V53.6714H38.1024L52.4011 70.4283H69.9774V60.6363V60.5135V60.1857V53.6304H64.2006C63.3812 52.6881 62.5209 51.7458 61.7014 50.8034H69.9774V47.7307H58.9974C58.3009 46.9522 57.6044 46.1738 56.9489 45.3953L56.5392 44.9447H70.0184V41.8719H53.9171L51.4588 39.004H69.9774Z" fill="white"/>
<path d="M69.9774 39.004V35.9311H49.1644V36.3818L25.0738 8.35809H7.49756V17.7813L20.6081 33.1452H7.49756V35.9722H23.0253L25.6474 39.0449H7.49756V41.8719H28.0647L30.6868 44.9447H7.49756V47.7716H33.1041L35.7262 50.8444H7.49756V53.6714H38.1024L52.4011 70.4283H69.9774V60.6363V60.5135V60.1857V53.6304H64.2006C63.3812 52.6881 62.5209 51.7458 61.7014 50.8034H69.9774V47.7307H58.9974C58.3009 46.9522 57.6044 46.1738 56.9489 45.3953L56.5392 44.9447H70.0184V41.8719H53.9171L51.4588 39.004H69.9774Z" fill="white"/>
<path d="M138.631 13.3728V65.3779H130.682L102.004 30.163V65.3779H92.4206V13.3728H100.37L129.047 48.5877V13.3728H138.631ZM188.821 25.7054L171.808 65.3779H162.224L145.211 25.7054H154.869L167.202 55.1255L179.906 25.7054H188.821ZM230.832 45.7646C230.832 46.4085 230.783 47.3247 230.684 48.5134H199.555C200.099 51.4356 201.511 53.7635 203.79 55.497C206.117 57.181 208.99 58.0229 212.408 58.0229C216.766 58.0229 220.357 56.5866 223.18 53.7139L228.158 59.4345C226.375 61.5643 224.121 63.1739 221.397 64.2635C218.673 65.3532 215.602 65.898 212.185 65.898C207.826 65.898 203.987 65.0312 200.669 63.2977C197.351 61.5643 194.775 59.1621 192.943 56.0913C191.16 52.971 190.268 49.4545 190.268 45.5417C190.268 41.6785 191.135 38.2114 192.869 35.1407C194.652 32.0204 197.103 29.5934 200.224 27.8599C203.344 26.1265 206.86 25.2597 210.773 25.2597C214.636 25.2597 218.078 26.1265 221.1 27.8599C224.17 29.5439 226.548 31.9461 228.232 35.0664C229.965 38.1371 230.832 41.7032 230.832 45.7646ZM210.773 32.689C207.801 32.689 205.275 33.5805 203.195 35.3635C201.164 37.097 199.926 39.4249 199.481 42.3471H221.991C221.595 39.4744 220.381 37.1466 218.351 35.3635C216.32 33.5805 213.794 32.689 210.773 32.689ZM252.011 65.898C248.791 65.898 245.646 65.477 242.576 64.635C239.505 63.793 237.053 62.7281 235.221 61.4404L238.787 54.3826C240.57 55.5713 242.699 56.5371 245.176 57.28C247.702 57.9734 250.178 58.3201 252.605 58.3201C258.152 58.3201 260.926 56.859 260.926 53.9368C260.926 52.55 260.208 51.5842 258.772 51.0394C257.385 50.4946 255.131 49.9745 252.011 49.4792C248.742 48.9839 246.068 48.4144 243.987 47.7705C241.956 47.1266 240.173 46.0122 238.638 44.4273C237.152 42.7929 236.409 40.5393 236.409 37.6666C236.409 33.9024 237.97 30.906 241.09 28.6772C244.259 26.3988 248.519 25.2597 253.868 25.2597C256.592 25.2597 259.316 25.5816 262.041 26.2255C264.764 26.8198 266.993 27.6371 268.727 28.6772L265.161 35.735C261.792 33.7538 258.003 32.7633 253.794 32.7633C251.07 32.7633 248.99 33.1843 247.553 34.0263C246.166 34.8188 245.473 35.8836 245.473 37.2209C245.473 38.7067 246.216 39.7716 247.702 40.4155C249.237 41.0098 251.59 41.5794 254.76 42.1242C257.929 42.6195 260.529 43.1891 262.561 43.833C264.591 44.4769 266.324 45.5664 267.761 47.1019C269.247 48.6373 269.99 50.8165 269.99 53.6396C269.99 57.3543 268.38 60.326 265.161 62.5548C261.941 64.7836 257.558 65.898 252.011 65.898ZM301.836 63.2234C300.746 64.115 299.408 64.7836 297.824 65.2294C296.288 65.6751 294.654 65.898 292.92 65.898C288.562 65.898 285.194 64.7589 282.817 62.4805C280.439 60.2022 279.251 56.8838 279.251 52.5252V33.4319H272.713V26.0026H279.251V16.9389H288.537V26.0026H299.161V33.4319H288.537V52.3024C288.537 54.234 289.007 55.7198 289.949 56.7599C290.889 57.7505 292.252 58.2458 294.035 58.2458C296.115 58.2458 297.848 57.701 299.235 56.6114L301.836 63.2234Z" fill="#182443"/>
</svg>
