<svg viewBox="0 0 41 41" fill="none" xmlns="http://www.w3.org/2000/svg">
<path fill-rule="evenodd" clip-rule="evenodd" d="M16.3999 16.4002H24.5999V24.6001H16.3999V16.4002Z" fill="#52AAE3"/>
<path fill-rule="evenodd" clip-rule="evenodd" d="M8.19979 0H32.8002C37.3102 0 41 3.69 41 8.2V13.2461H32.8002V10.0922C32.8002 9.05141 31.9486 8.20023 30.9075 8.20023H10.0922C9.05132 8.20023 8.20007 9.05141 8.20007 10.0922V16.4002V30.9081V41H8.19979C3.68986 41 0 37.3102 0 32.8003V8.2C0 3.69 3.68986 0 8.19979 0ZM25.8616 16.4002H41V32.8003C41 37.3102 37.3102 41 32.8002 41H16.4V32.8003H30.9075C31.9486 32.8003 32.8002 31.9488 32.8002 30.9081V19.0255L25.8616 16.4002Z" fill="#464B4E"/>
</svg>
