<svg viewBox="0 0 160 160" fill="none" xmlns="http://www.w3.org/2000/svg">
<path
    d="M151.354 71.694H90.2814C87.3484 71.694 84.9707 74.0717 84.9707 77.0047V119.49C84.9707 122.423 87.3484 124.801 90.2814 124.801H151.354C154.287 124.801 156.665 122.423 156.665 119.49V77.0047C156.665 74.0717 154.287 71.694 151.354 71.694Z"
    fill="#BEBEBE"
  />
<path
    d="M151.354 2.65533H90.2814C87.3484 2.65533 84.9707 5.033 84.9707 7.966V55.762C84.9707 58.695 87.3484 61.0727 90.2814 61.0727H151.354C154.287 61.0727 156.665 58.695 156.665 55.762V7.966C156.665 5.033 154.287 2.65533 151.354 2.65533Z"
    fill="#BEBEBE"
  />
<path
    d="M69.0386 71.694H7.96594C5.03294 71.694 2.65527 74.0717 2.65527 77.0047V119.49C2.65527 122.423 5.03294 124.801 7.96594 124.801H69.0386C71.9716 124.801 74.3493 122.423 74.3493 119.49V77.0047C74.3493 74.0717 71.9716 71.694 69.0386 71.694Z"
    fill="#BEBEBE"
  />
<path d="M10.6213 79.66H23.898V84.9707H10.6213V79.66Z" fill="#3192D3" />
<path d="M31.864 79.66H53.1067V84.9707H31.864V79.66Z" fill="#3192D3" />
<path d="M10.6213 90.2813H23.898V95.592H10.6213V90.2813Z" fill="#3192D3" />
<path d="M31.864 90.2813H53.1067V95.592H31.864V90.2813Z" fill="#3192D3" />
<path d="M10.6213 111.524H23.898V116.835H10.6213V111.524Z" fill="#3192D3" />
<path d="M31.864 111.524H39.83V116.835H31.864V111.524Z" fill="#3192D3" />
<path d="M10.6213 100.903H23.898V106.213H10.6213V100.903Z" fill="#3192D3" />
<path d="M31.864 100.903H53.1067V106.213H31.864V100.903Z" fill="#3192D3" />
<path
    d="M69.0386 2.65533H7.96594C5.03294 2.65533 2.65527 5.033 2.65527 7.966V55.762C2.65527 58.695 5.03294 61.0727 7.96594 61.0727H69.0386C71.9716 61.0727 74.3493 58.695 74.3493 55.762V7.966C74.3493 5.033 71.9716 2.65533 69.0386 2.65533Z"
    fill="#BEBEBE"
  />
<path
    d="M79.66 138.077H116.835C121.06 138.077 125.112 139.756 128.1 142.744C131.088 145.732 132.767 149.784 132.767 154.009V156.665H26.5533V154.009C26.5533 149.784 28.2319 145.732 31.2197 142.744C34.2075 139.756 38.2599 138.077 42.4853 138.077H79.66Z"
    fill="#353535"
  />
<path
    d="M95.592 114.179L93.9424 107.581C93.6551 106.432 92.992 105.412 92.0585 104.683C91.125 103.954 89.9746 103.558 88.7902 103.558H70.5298C69.3454 103.558 68.1951 103.954 67.2616 104.683C66.328 105.412 65.6649 106.432 65.3777 107.581L63.728 114.179H95.592Z"
    fill="#353535"
  />
<path
    d="M79.66 50.4513C74.7303 50.4513 70.0025 52.4096 66.5167 55.8954C63.0309 59.3812 61.0726 64.109 61.0726 69.0387V78.3323C61.0726 81.2179 61.7445 84.0639 63.0349 86.6448C64.3254 89.2258 66.1991 91.4708 68.5075 93.2021L69.5697 93.9989C70.2293 94.4935 70.7646 95.135 71.1333 95.8724C71.502 96.6098 71.694 97.4229 71.694 98.2473V103.558H87.626V98.2473C87.626 97.4229 87.8179 96.6098 88.1866 95.8724C88.5553 95.135 89.0906 94.4935 89.7502 93.9989L90.8124 93.2021C93.1209 91.4708 94.9945 89.2258 96.285 86.6448C97.5755 84.0639 98.2473 81.2179 98.2473 78.3323V69.0387C98.2473 64.109 96.289 59.3812 92.8032 55.8954C89.3174 52.4096 84.5896 50.4513 79.66 50.4513Z"
    fill="#EDAD2E"
  />
<path d="M10.6213 13.2767H23.898V18.5873H10.6213V13.2767Z" fill="#EDEDED" />
<path d="M31.864 13.2767H45.1407V18.5873H31.864V13.2767Z" fill="#EDEDED" />
<path d="M53.1067 13.2767H66.3834V18.5873H53.1067V13.2767Z" fill="#EDEDED" />
<path d="M10.6213 23.898H23.898V29.2087H10.6213V23.898Z" fill="#EDEDED" />
<path d="M31.864 23.898H45.1407V29.2087H31.864V23.898Z" fill="#EDEDED" />
<path d="M53.1067 23.898H66.3834V29.2087H53.1067V23.898Z" fill="#EDEDED" />
<path d="M10.6213 45.1407H23.898V50.4513H10.6213V45.1407Z" fill="#EDEDED" />
<path d="M31.864 45.1407H45.1407V50.4513H31.864V45.1407Z" fill="#EDEDED" />
<path d="M53.1067 45.1407H63.728V50.4513H53.1067V45.1407Z" fill="#EDEDED" />
<path d="M10.6213 34.5193H23.898V39.83H10.6213V34.5193Z" fill="#EDEDED" />
<path d="M31.864 34.5193H45.1407V39.83H31.864V34.5193Z" fill="#EDEDED" />
<path d="M53.1067 34.5193H66.3834V39.83H53.1067V34.5193Z" fill="#EDEDED" />
<path
    d="M94.8144 44.363L91.0591 40.6077L106.213 25.4537L114.179 33.4197L127.456 20.143L135.422 28.109L146.821 16.7097L150.576 20.465L135.422 35.619L127.456 27.653L114.179 40.9296L106.213 32.9636L94.8144 44.363Z"
    fill="#6BAD55"
  />
<path d="M92.9366 10.6213H108.869V15.932H92.9366V10.6213Z" fill="#EDEDED" />
<path d="M106.213 47.796H116.835V53.1067H106.213V47.796Z" fill="#EDEDED" />
<path d="M122.145 47.796H132.767V53.1067H122.145V47.796Z" fill="#EDEDED" />
<path d="M138.077 47.796H148.698V53.1067H138.077V47.796Z" fill="#EDEDED" />
<path d="M143.388 79.66H148.699V84.9707H143.388V79.66Z" fill="#EDEDED" />
<path d="M143.388 90.2813H148.699V95.592H143.388V90.2813Z" fill="#EDEDED" />
<path d="M143.388 111.524H148.699V116.835H143.388V111.524Z" fill="#EDEDED" />
<path d="M143.388 100.903H148.699V106.213H143.388V100.903Z" fill="#EDEDED" />
<path d="M106.213 79.66H122.145V84.9707H106.213V79.66Z" fill="#EDEDED" />
<path d="M106.213 90.2813H122.145V95.592H106.213V90.2813Z" fill="#EDEDED" />
<path d="M106.213 100.903H122.145V106.213H106.213V100.903Z" fill="#EDEDED" />
<path d="M130.111 79.66H135.422V84.9707H130.111V79.66Z" fill="#EDEDED" />
<path d="M130.111 90.2813H135.422V95.592H130.111V90.2813Z" fill="#EDEDED" />
<path d="M130.111 111.524H135.422V116.835H130.111V111.524Z" fill="#EDEDED" />
<path d="M130.111 100.903H135.422V106.213H130.111V100.903Z" fill="#EDEDED" />
<path
    d="M118.793 124.712C118.189 123.101 117.203 121.662 115.919 120.516C114.635 119.371 113.093 118.555 111.424 118.137L95.592 114.179H63.728L47.896 118.137C46.2271 118.555 44.6845 119.371 43.4009 120.516C42.1173 121.662 41.131 123.101 40.527 124.712L34.5193 140.733H124.801L118.793 124.712Z"
    fill="#575757"
  />
<path d="M71.694 98.2473H87.626V103.558H71.694V98.2473Z" fill="#F9C7B2" />
<path
    d="M7.966 63.728H53.1067V58.4173H7.966C7.26201 58.4165 6.58708 58.1365 6.08929 57.6387C5.59149 57.1409 5.31147 56.466 5.31067 55.762V7.966C5.31147 7.26201 5.59149 6.58708 6.08929 6.08928C6.58708 5.59149 7.26201 5.31147 7.966 5.31067H69.0387C69.7427 5.31147 70.4176 5.59149 70.9154 6.08928C71.4132 6.58708 71.6932 7.26201 71.694 7.966V42.4853H77.0047V7.966C77.0023 5.85403 76.1622 3.82925 74.6688 2.33586C73.1754 0.842464 71.1506 0.00241582 69.0387 0H7.966C5.85403 0.00241582 3.82925 0.842464 2.33586 2.33586C0.842464 3.82925 0.00241582 5.85403 0 7.966V55.762C0.00241582 57.874 0.842464 59.8988 2.33586 61.3921C3.82925 62.8855 5.85403 63.7256 7.966 63.728Z"
    fill="black"
  />
<path
    d="M126.716 138.277L121.279 123.78C120.524 121.766 119.291 119.966 117.687 118.535C116.082 117.103 114.154 116.083 112.068 115.561L97.7815 111.99L96.5183 106.936C96.1506 105.461 95.3676 104.122 94.2622 103.078C93.1567 102.034 91.7752 101.329 90.2813 101.047V98.2473C90.2823 97.8352 90.3787 97.429 90.5631 97.0604C90.7474 96.6918 91.0147 96.3709 91.3438 96.1229L92.4053 95.3265C95.0379 93.3425 97.1751 90.7756 98.6493 87.8271C100.124 84.8787 100.895 81.6288 100.903 78.3323V69.0387C100.903 63.4048 98.6646 58.0016 94.6808 54.0178C90.697 50.0341 85.2939 47.796 79.6599 47.796C74.026 47.796 68.6229 50.0341 64.6391 54.0178C60.6553 58.0016 58.4173 63.4048 58.4173 69.0387V78.3323C58.425 81.6287 59.1963 84.8785 60.6705 87.8269C62.1447 90.7753 64.2818 93.3422 66.9142 95.3262L67.9764 96.1233C68.3055 96.3712 68.5726 96.6921 68.7569 97.0606C68.9412 97.4291 69.0376 97.8353 69.0386 98.2473V101.047C67.5447 101.329 66.1631 102.035 65.0576 103.078C63.9522 104.122 63.1692 105.461 62.8016 106.936L61.5384 111.99L47.2521 115.561C45.1658 116.083 43.2375 117.103 41.633 118.535C40.0284 119.966 38.7956 121.766 38.0407 123.78L32.6043 138.277C29.9408 139.949 27.7449 142.269 26.2222 145.02C24.6995 147.772 23.8998 150.865 23.8979 154.009V159.32H135.422V154.009C135.42 150.865 134.62 147.772 133.098 145.02C131.575 142.269 129.379 139.949 126.716 138.277ZM63.7279 78.3323V69.0387C63.7279 64.8132 65.4065 60.7609 68.3943 57.773C71.3821 54.7852 75.4345 53.1067 79.6599 53.1067C83.8854 53.1067 87.9377 54.7852 90.9256 57.773C93.9134 60.7609 95.5919 64.8132 95.5919 69.0387V78.3323C95.5861 80.8047 95.0076 83.2421 93.9019 85.4535C92.7962 87.6649 91.1932 89.59 89.2188 91.0781L88.1572 91.8745C87.17 92.6185 86.3685 93.581 85.8156 94.6867C85.2627 95.7924 84.9735 97.0111 84.9706 98.2473V100.903H74.3493V98.2473C74.3464 97.0112 74.0572 95.7926 73.5044 94.6869C72.9516 93.5813 72.1502 92.6188 71.163 91.8748L70.1008 91.0777C68.1264 89.5897 66.5236 87.6646 65.4179 85.4533C64.3122 83.242 63.7338 80.8046 63.7279 78.3323ZM70.5296 106.213H88.7903C89.3826 106.213 89.9581 106.41 90.425 106.775C90.8919 107.139 91.2234 107.65 91.3665 108.225L92.1913 111.524H67.1286L67.9534 108.225C68.0964 107.65 68.4279 107.14 68.8948 106.775C69.3617 106.41 69.9372 106.213 70.5296 106.213ZM43.013 125.644C43.4661 124.436 44.2058 123.356 45.1686 122.497C46.1314 121.638 47.2884 121.026 48.5402 120.713L64.0544 116.835H95.2652L110.78 120.713C112.031 121.026 113.188 121.638 114.151 122.497C115.114 123.356 115.854 124.436 116.307 125.644L120.082 135.712C119.01 135.52 117.924 135.423 116.835 135.422H42.4853C41.3964 135.423 40.3097 135.52 39.2378 135.712L43.013 125.644ZM29.2086 154.009C29.2126 150.489 30.6127 147.115 33.1017 144.626C35.5907 142.137 38.9653 140.737 42.4853 140.733H116.835C120.355 140.737 123.729 142.137 126.218 144.626C128.707 147.115 130.107 150.489 130.111 154.009H29.2086Z"
    fill="black"
  />
<path
    d="M31.864 122.145H7.966C7.26201 122.145 6.58708 121.865 6.08928 121.367C5.59149 120.869 5.31147 120.194 5.31067 119.49V77.0047C5.31147 76.3007 5.59149 75.6257 6.08928 75.128C6.58708 74.6302 7.26201 74.3501 7.966 74.3493H53.1067V69.0387H7.966C5.85403 69.0411 3.82925 69.8811 2.33586 71.3745C0.842464 72.8679 0.00241582 74.8927 0 77.0047V119.49C0.00241582 121.602 0.842464 123.627 2.33586 125.12C3.82925 126.614 5.85403 127.454 7.966 127.456H31.864V122.145Z"
    fill="black"
  />
<path
    d="M151.354 0H90.2813C88.1693 0.00241582 86.1446 0.842464 84.6512 2.33586C83.1578 3.82925 82.3177 5.85403 82.3153 7.966V42.4853H87.626V7.966C87.6268 7.26201 87.9068 6.58708 88.4046 6.08928C88.9024 5.59149 89.5773 5.31147 90.2813 5.31067H151.354C152.058 5.31147 152.733 5.59149 153.231 6.08928C153.728 6.58708 154.009 7.26201 154.009 7.966V55.762C154.009 56.466 153.728 57.1409 153.231 57.6387C152.733 58.1365 152.058 58.4165 151.354 58.4173H106.213V63.728H151.354C153.466 63.7256 155.491 62.8855 156.984 61.3921C158.478 59.8988 159.318 57.874 159.32 55.762V7.966C159.318 5.85403 158.478 3.82925 156.984 2.33586C155.491 0.842464 153.466 0.00241582 151.354 0Z"
    fill="black"
  />
<path
    d="M151.354 69.0387H106.213V74.3493H151.354C152.058 74.3501 152.733 74.6302 153.231 75.128C153.729 75.6257 154.009 76.3007 154.009 77.0047V119.49C154.009 120.194 153.729 120.869 153.231 121.367C152.733 121.865 152.058 122.145 151.354 122.145H127.456V127.456H151.354C153.466 127.454 155.491 126.614 156.984 125.12C158.478 123.627 159.318 121.602 159.32 119.49V77.0047C159.318 74.8927 158.478 72.8679 156.984 71.3745C155.491 69.8811 153.466 69.0411 151.354 69.0387Z"
    fill="black"
  />
<path d="M10.6213 13.2767H23.898V18.5873H10.6213V13.2767Z" fill="black" />
<path d="M31.864 13.2767H45.1407V18.5873H31.864V13.2767Z" fill="black" />
<path d="M53.1067 13.2767H66.3834V18.5873H53.1067V13.2767Z" fill="black" />
<path d="M10.6213 23.898H23.898V29.2087H10.6213V23.898Z" fill="black" />
<path d="M31.864 23.898H45.1407V29.2087H31.864V23.898Z" fill="black" />
<path d="M53.1067 23.898H66.3834V29.2087H53.1067V23.898Z" fill="black" />
<path d="M10.6213 45.1407H23.898V50.4513H10.6213V45.1407Z" fill="black" />
<path d="M31.864 45.1407H45.1407V50.4513H31.864V45.1407Z" fill="black" />
<path d="M53.1067 45.1407H63.728V50.4513H53.1067V45.1407Z" fill="black" />
<path d="M10.6213 34.5193H23.898V39.83H10.6213V34.5193Z" fill="black" />
<path d="M31.864 34.5193H45.1407V39.83H31.864V34.5193Z" fill="black" />
<path d="M53.1067 34.5193H66.3834V39.83H53.1067V34.5193Z" fill="black" />
<path
    d="M94.8144 44.363L106.213 32.9636L114.179 40.9296L127.456 27.653L135.422 35.619L150.576 20.465L146.821 16.7097L135.422 28.109L127.456 20.143L114.179 33.4197L106.213 25.4537L91.0591 40.6077L94.8144 44.363Z"
    fill="black"
  />
<path d="M92.9366 10.6213H108.869V15.932H92.9366V10.6213Z" fill="black" />
<path d="M106.213 47.796H116.835V53.1067H106.213V47.796Z" fill="black" />
<path d="M122.145 47.796H132.767V53.1067H122.145V47.796Z" fill="black" />
<path d="M138.077 47.796H148.699V53.1067H138.077V47.796Z" fill="black" />
<path d="M10.6213 79.66H23.898V84.9707H10.6213V79.66Z" fill="black" />
<path d="M31.864 79.66H53.1067V84.9707H31.864V79.66Z" fill="black" />
<path d="M10.6213 90.2813H23.898V95.592H10.6213V90.2813Z" fill="black" />
<path d="M31.864 90.2813H53.1067V95.592H31.864V90.2813Z" fill="black" />
<path d="M10.6213 111.524H23.898V116.835H10.6213V111.524Z" fill="black" />
<path d="M31.864 111.524H39.83V116.835H31.864V111.524Z" fill="black" />
<path d="M10.6213 100.903H23.898V106.213H10.6213V100.903Z" fill="black" />
<path d="M31.864 100.903H53.1067V106.213H31.864V100.903Z" fill="black" />
<path d="M143.388 79.66H148.699V84.9707H143.388V79.66Z" fill="black" />
<path d="M143.388 90.2813H148.699V95.592H143.388V90.2813Z" fill="black" />
<path d="M143.388 111.524H148.699V116.835H143.388V111.524Z" fill="black" />
<path d="M143.388 100.903H148.699V106.213H143.388V100.903Z" fill="black" />
<path d="M106.213 79.66H122.145V84.9707H106.213V79.66Z" fill="black" />
<path d="M106.213 90.2813H122.145V95.592H106.213V90.2813Z" fill="black" />
<path d="M106.213 100.903H122.145V106.213H106.213V100.903Z" fill="black" />
<path d="M130.111 79.66H135.422V84.9707H130.111V79.66Z" fill="black" />
<path d="M130.111 90.2813H135.422V95.592H130.111V90.2813Z" fill="black" />
<path d="M130.111 111.524H135.422V116.835H130.111V111.524Z" fill="black" />
<path d="M130.111 100.903H135.422V106.213H130.111V100.903Z" fill="black" />
</svg>
