<svg viewBox="0 0 160 160" fill="none" xmlns="http://www.w3.org/2000/svg">
<path
    d="M150.47 0H44.2571C41.9104 0.00256148 39.6606 0.935902 38.0013 2.59524C36.3419 4.25458 35.4086 6.50438 35.406 8.85104V134.771L15.3024 154.654C14.9882 155.096 14.8015 155.615 14.7627 156.155C14.7239 156.696 14.8346 157.236 15.0826 157.718C15.3306 158.2 15.7063 158.604 16.1687 158.886C16.6311 159.168 17.1622 159.318 17.704 159.319H150.47C152.816 159.316 155.066 158.383 156.725 156.723C158.385 155.064 159.318 152.814 159.321 150.468V8.85104C159.318 6.50438 158.385 4.25458 156.725 2.59524C155.066 0.935902 152.816 0.00256148 150.47 0Z"
    fill="#EFF3FE"
  />
<path
    d="M35.406 70.8083H8.85292C6.50548 70.8083 4.25418 71.7408 2.59429 73.4007C0.9344 75.0606 0.00188184 77.3119 0.00188184 79.6594V141.001C-0.061142 145.375 1.46073 149.624 4.28643 152.964C7.11212 156.303 11.0508 158.507 15.375 159.169C17.8742 159.497 20.4147 159.289 22.8268 158.557C25.239 157.826 27.4674 156.588 29.3632 154.927C31.2591 153.265 32.7787 151.219 33.8207 148.924C34.8628 146.628 35.4032 144.137 35.406 141.617V70.8083Z"
    fill="#BCC2D7"
  />
<path
    d="M94.413 94.4111C115.596 94.4111 132.767 77.2392 132.767 56.0566C132.767 34.874 115.596 17.7021 94.413 17.7021C73.2304 17.7021 56.0585 34.874 56.0585 56.0566C56.0585 77.2392 73.2304 94.4111 94.413 94.4111Z"
    fill="#95D6A4"
  />
<path
    d="M99.3556 53.4693C98.8639 53.2955 98.3602 53.1066 97.8589 52.9207V43.8489C98.4155 44.0596 98.9383 44.3509 99.4104 44.7134C99.9898 45.2332 100.751 45.503 101.529 45.4639C102.306 45.4248 103.037 45.0801 103.561 44.5048C104.085 43.9295 104.361 43.1703 104.328 42.3926C104.295 41.6148 103.956 40.8817 103.385 40.3528C101.787 39.0398 99.8883 38.144 97.8589 37.7456V36.1563C97.8589 35.3738 97.548 34.6234 96.9947 34.0701C96.4414 33.5168 95.691 33.2059 94.9085 33.2059C94.126 33.2059 93.3756 33.5168 92.8223 34.0701C92.269 34.6234 91.9582 35.3738 91.9582 36.1563V37.957C90.1245 38.4105 88.4634 39.3899 87.1788 40.7747C85.8943 42.1596 85.0424 43.8896 84.7278 45.7521C84.3756 47.3103 84.4583 48.9354 84.967 50.4498C85.4756 51.9642 86.3905 53.3098 87.6119 54.3395C88.9561 55.3535 90.4149 56.2059 91.9582 56.8793V69.0252C90.5905 68.7843 89.2992 68.2234 88.1896 67.3885C87.5351 66.9625 86.7384 66.8133 85.9741 66.9738C85.2098 67.1342 84.5404 67.5912 84.1125 68.2445C83.6846 68.8977 83.5332 69.694 83.6915 70.4587C83.8498 71.2234 84.3048 71.8942 84.9569 72.324C87.0126 73.8121 89.4308 74.7198 91.958 74.9522V76.709C91.958 77.4915 92.2689 78.2419 92.8222 78.7952C93.3755 79.3485 94.1259 79.6594 94.9084 79.6594C95.6909 79.6594 96.4413 79.3485 96.9946 78.7952C97.5479 78.2419 97.8587 77.4915 97.8587 76.709V74.632C100.033 74.0484 101.995 72.8562 103.515 71.1955C105.035 69.5349 106.048 67.4748 106.437 65.2576C106.89 62.7677 106.422 60.1981 105.118 58.0288C103.815 55.8594 101.767 54.2386 99.3556 53.4693ZM90.5262 46.8439C90.7094 45.8838 91.2145 45.0148 91.9582 44.3804V50.1525C91.3443 49.8856 90.8548 49.3953 90.5889 48.781C90.323 48.1666 90.3006 47.4742 90.5262 46.8439ZM100.619 64.2795C100.474 65.1127 100.153 65.9052 99.677 66.6042C99.201 67.3031 98.5811 67.8922 97.8589 68.3321V59.2502C98.8395 59.6265 99.655 60.3384 100.16 61.2592C100.666 62.18 100.828 63.2502 100.619 64.2795Z"
    fill="#EFF3FE"
  />
<path
    d="M129.817 120.964H59.0088C58.2263 120.964 57.4759 120.653 56.9226 120.1C56.3693 119.547 56.0585 118.796 56.0585 118.014C56.0585 117.231 56.3693 116.481 56.9226 115.928C57.4759 115.374 58.2263 115.064 59.0088 115.064H129.817C130.6 115.064 131.35 115.374 131.903 115.928C132.457 116.481 132.767 117.231 132.767 118.014C132.767 118.796 132.457 119.547 131.903 120.1C131.35 120.653 130.6 120.964 129.817 120.964Z"
    fill="#546C8C"
  />
<path
    d="M129.817 141.617H59.0087C58.2262 141.617 57.4758 141.306 56.9225 140.752C56.3692 140.199 56.0583 139.449 56.0583 138.666C56.0583 137.884 56.3692 137.133 56.9225 136.58C57.4758 136.027 58.2262 135.716 59.0087 135.716H129.817C130.599 135.716 131.35 136.027 131.903 136.58C132.457 137.133 132.767 137.884 132.767 138.666C132.767 139.449 132.457 140.199 131.903 140.752C131.35 141.306 130.599 141.617 129.817 141.617Z"
    fill="#546C8C"
  />
</svg>
