<svg viewBox="0 0 160 160" fill="none" xmlns="http://www.w3.org/2000/svg">
<path
    d="M47.4185 78.726C48.069 78.5273 48.7451 78.4247 49.4277 78.4247C50.8473 78.4247 52.2766 78.867 53.5007 79.7867C56.0835 81.7286 56.9392 85.2184 55.5516 88.1313L45.6367 108.932L46.2264 113.54C46.4058 114.921 46.4924 116.309 46.4924 117.693C46.4924 122.82 45.2778 127.896 42.9257 132.495L43.8211 155.56C43.9008 157.612 42.2582 159.32 40.2041 159.32H11.1668C9.12582 159.32 7.48862 157.634 7.54886 155.594L8.3234 129.335L4.87211 122.615C-2.78033 107.714 -1.33188 89.7656 8.61181 76.2873L19.4752 61.5624L30.2745 46.9529L47.4185 78.726Z"
    fill="#FFE5C2"
  />
<path
    d="M50.2654 78.4814C49.987 78.4468 49.7072 78.4247 49.4278 78.4247C48.7452 78.4247 48.069 78.5273 47.4185 78.726L44.3457 73.0312C42.0644 73.9778 40.1173 75.5269 38.2997 77.5893L14.7691 111.358C13.3475 113.398 14.788 116.198 17.2744 116.227L34.7077 116.432L50.2654 78.4814Z"
    fill="#FED2A4"
  />
<path
    d="M18.7485 155.594L19.523 129.335L16.0717 122.615C8.41929 107.714 9.86775 89.7653 19.8114 76.287L30.6748 61.5621L35 55.7109L30.2743 46.9526L19.475 61.5621L8.61157 76.287C-1.33212 89.7653 -2.78057 107.714 4.87187 122.615L8.32316 129.335L7.54862 155.594C7.48837 157.634 9.12589 159.32 11.1669 159.32H22.3667C20.3258 159.32 18.6882 157.634 18.7485 155.594Z"
    fill="#FED2A4"
  />
<path
    d="M159.507 10.482V97.4212C159.507 103.212 154.812 107.903 149.025 107.903H30.6974L25.631 106.971C22.0003 105.324 19.4751 101.667 19.4751 97.4212V10.482C19.4751 4.69145 24.1697 0 29.9571 0H149.025C154.812 0 159.507 4.69145 159.507 10.482Z"
    fill="#D7D0D6"
  />
<path
    d="M39.4512 101.029V5.03113C39.4512 3.22761 39.8249 1.5212 40.4911 0H29.9571C24.1697 0 19.4751 4.69145 19.4751 10.482V97.4212C19.4751 101.667 22.0003 105.324 25.631 106.971L30.6974 107.903H41.505C40.2165 105.981 39.4512 103.604 39.4512 101.029Z"
    fill="#BAAFB9"
  />
<path
    d="M57.3505 74.6623C55.0458 72.9309 52.3062 72.0153 49.4279 72.0153C48.1137 72.0153 46.8079 72.2108 45.5206 72.604C42.7307 73.4689 40.361 75.1843 38.6664 77.5665L20.8582 102.622C21.9496 104.527 23.6192 106.058 25.631 106.97L30.6974 107.903H53.2272L61.3376 90.8869C64.0259 85.2443 62.3496 78.4212 57.3505 74.6623Z"
    fill="#BAAFB9"
  />
<path
    d="M137.027 10.482V97.4212C137.027 97.9019 136.639 98.2896 136.159 98.2896H29.9571C29.4796 98.2896 29.0886 97.9019 29.0886 97.4212V10.482C29.0886 10.0014 29.4796 9.61362 29.9571 9.61362H136.159C136.639 9.61362 137.027 10.0014 137.027 10.482Z"
    fill="#C8EFFE"
  />
<path
    d="M57.3504 74.6623C55.0457 72.9308 52.3062 72.0153 49.4278 72.0153C48.1137 72.0153 46.8078 72.2108 45.5205 72.604C44.697 72.8594 43.9103 73.1888 43.1671 73.5881C41.4857 74.4905 39.4511 73.2401 39.4511 71.3318V9.61362H29.9571C29.4796 9.61362 29.0886 10.0014 29.0886 10.482V97.4212C29.0886 97.9019 29.4796 98.2896 29.9571 98.2896H57.8096L61.3378 90.8875C64.0258 85.2443 62.3495 78.4212 57.3504 74.6623Z"
    fill="#99E6FC"
  />
<path
    d="M148.191 63.4502C146.863 63.4502 145.788 62.3741 145.788 61.0468V53.952C145.788 52.6246 146.863 51.5486 148.191 51.5486C149.519 51.5486 150.594 52.6246 150.594 53.952V61.0468C150.594 62.3741 149.518 63.4502 148.191 63.4502Z"
    fill="#BAAFB9"
  />
<path
    d="M53.5007 79.7863C52.2766 78.8666 50.8473 78.4244 49.4277 78.4244C48.7452 78.4244 48.069 78.5269 47.4185 78.7256C46.0437 79.1518 44.7908 80.0138 43.8903 81.2796L21.8655 112.268L15.9419 119.436L25.4097 141.026H43.2571L42.9257 132.495C45.2779 127.896 46.4924 122.82 46.4924 117.693C46.4924 116.308 46.4059 114.921 46.2264 113.54L45.6368 108.932L55.5516 88.1309C56.9392 85.218 56.0836 81.7283 53.5007 79.7863Z"
    fill="#FFE5C2"
  />
<path
    d="M83.8337 83.7237C99.6641 83.7237 112.497 70.8907 112.497 55.0604C112.497 39.2301 99.6641 26.3971 83.8337 26.3971C68.0034 26.3971 55.1704 39.2301 55.1704 55.0604C55.1704 70.8907 68.0034 83.7237 83.8337 83.7237Z"
    fill="#F37C7C"
  />
<path
    d="M74.228 66.8095V43.3113C74.228 39.9725 77.9757 38.0055 80.7236 39.9023L97.7439 51.6514C100.129 53.2982 100.129 56.8229 97.7439 58.4694L80.7236 70.2185C77.9757 72.1153 74.228 70.1487 74.228 66.8095Z"
    fill="#F9F7F8"
  />
</svg>
